{
   "type": "entity",
   "mixins": [
      "file(brewer_fermenting_carboy_unfermented_red_wine_ghost.json)"
   ],
   "components": {
      "stonehearth:entity_forms": {
         "ghost_form": "file(brewer_fermenting_carboy_unfermented_red_wine_ghost.json)",
         "iconic_form": "file(brewer_fermenting_carboy_unfermented_red_wine_iconic.json)",
         "placeable_on_ground": true,
         "hide_undeploy_ui": true
      },
      "destination": {
         "region": [
            {
               "min": { "x": -1, "y": 0, "z": -1 },
               "max": { "x": 1, "y": 1, "z": 1 }
            }
         ]
      },
      "region_collision_shape": {
         "region": [
            {
               "min": { "x": -1, "y": 0, "z": -1 },
               "max": { "x": 1, "y": 3, "z": 1 }
            }
         ]
      },
      "stonehearth:evolve": {},
      "effect_list": {
         "effects": [
            "stonehearth_ace:effects:fermenting_carboy_bubbles"
         ]
      }
   },
   "entity_data": {
      "stonehearth:evolve_data": {
         "next_stage": "serene_league:brewer:fermenting_carboy:red_wine",
         "evolve_effect": "stonehearth:effects:item_created",
         "evolve_time": "2d+16h",
         "auto_harvest": true
      },
      "stonehearth:net_worth": {
         "value_in_gold": 48,
         "rarity": "common",
         "shop_info": {
            "buyable": false,
            "sellable": false
         }
      },
      "stonehearth:appeal": {
         "appeal": -1
      },
      "stonehearth:item_quality": {
         "variable_quality": true
      }
   }
}
