{
   "mixins": "/stonehearth/jobs/weaver/recipes/recipes.json",
   "craftable_recipes": {
      "tools": {
         "ordinal": 1.1,
         "name": "i18n(stonehearth:jobs.carpenter.recipes.tools_weapons_name)",
         "recipes": {
            "archer_bow": {
               "recipe": "file(archer_bow_recipe.json)"
            }
         }
      },
      "clothing_armor": {
         "recipes": {
            "leather_helmet": {
               "recipe": "file(leather_hat_recipe.json)"
            },
            "leather_vest": {
               "recipe": "file(leather_uniform_recipe.json)"
            },
            "cloth_padded_helmet": {
               "recipe": "file(cloth_padded_hat_recipe.json)"
            },
            "cloth_padded_vest": {
               "recipe": "file(cloth_padded_uniform_recipe.json)"
            }
         }
      }
   }
}
