{
  "mixins": [
    "stonehearth:jobs:cleric"
  ],
  "equipment": {
    "torso": "file(cleric_outfit)"
  },
  "display_order": 1,
  "parent_job": "stonehearth:jobs:herbalist",
  "parent_level_requirement": 3
}