{
  "type": "entity",
  "mixins": [
    "stonehearth:carpenter:outfit"
  ],
  "components": {
    "model_variants": {
      "mixintypes": {
        "default": "override",
        "female": "override"
      },
      "default": {
        "layer": "clothing",
        "transparent": false,
        "models": [
          "file(carpenter_outfit.qb)"
        ]
      },
      "female": {
        "layer": "clothing",
        "transparent": false,
        "models": [
          "file(carpenter_outfit_female.qb)"
        ]
      }
    }
  },
  "entity_data": {
    "stonehearth:catalog": {
      "icon": "file(carpenter_outfit.png)"
    }
  }
}