{
  "entity_data": {
    "stonehearth_ace:transform_data": {
      "transform_options": {
        "terracotta": {
          "transform_uri": "stonehearth_ace:construction:wooden:water_well:roofed",
          "command": "serene_league:commands:transform:build_well_roof_terracotta",
          "request_action": "stonehearth_ace:transform",
          "request_action_overlay_effect": "stonehearth_ace:effects:transform_potter_overlay_effect",
          "transform_ingredient_uri": "serene_league:refined:water_well_roof:terracotta",
          "transform_ingredient_auto_craft": true,
          "transforming_worker_effect": "work",
          "transforming_worker_effect_times": 6,
          "transform_effect": "stonehearth:effects:poof_effect",
          "model_variant": "terracotta",
          "worker_required_job": {
            "stonehearth:jobs:worker": true,
            "stonehearth:jobs:potter": true
          }
        }
      }
    }
  }
}