{
   "type": "buff",
   "axis": "neutral",
   "invisible_to_player": true,
   "script": "serene_league:buff_scripts:body_model",
   "script_info": {
      "default": {
         "/stonehearth/entities/humans/male/body.qb": false,
         "/serene_league/entities/humans/male/body.qb": true
      },
      "female": {
         "/stonehearth/entities/humans/female/body.qb": false,
         "/serene_league/entities/humans/female/body.qb": true
      },
      "orc_male": {
         "/stonehearth/entities/monsters/orcs/orc/male/orc_male_head.qb": false,
         "/serene_league/entities/monsters/orcs/orc/male/orc_male_head.qb": true
      }
   }
}
