{
   "mixins": "stonehearth:mixins:item_properties",
   "type": "entity",
   "components": {
      "model_variants": {
         "default": {
            "models": [
               "file(sugar_cane_bale.qb)"
            ]
         }
      },
      "mob": {
         "model_origin": { "x": -0.05, "y": 0, "z": 0.05 }
      },
      "stonehearth:stacks": {
         "max_stacks": 120
      }
   },
   "entity_data": {
      "stonehearth:net_worth": {
         "value_in_gold": 2,
         "rarity": "rare",
         "shop_info": {
            "buyable": true,
            "sellable": true,
            "shopkeeper_level": 1,
            "shopkeeper_type": "caravan"
         }
      },
      "stonehearth:catalog": {
         "display_name": "i18n(serene_league:entities.plants.sugar_cane.bale.display_name)",
         "description": "i18n(serene_league:entities.plants.sugar_cane.bale.description)",
         "icon": "file(sugar_cane_bale.png)",
         "is_item": true,
         "category": "cooking_ingredient",
         "material_tags": [
            "cooking_ingredient",
            "stockpile_cooking_ingredient",
            "sugar_cane",
            "other_ingredient",
            "thatch",
            "resource",
            "undesirable_ingredient"
         ],
         "subject_override": "serene_league:crops:sugar_cane_crop"
      },
      "stonehearth:appeal": {
         "appeal": 0
      }
   }
}
