{
   "type": "entity",
   "mixins": [
      "stonehearth:mixins:item_properties",
      "serene_league:stonehearth_ace:sunstroke_resist"
   ],
   "components": {
      "render_info": {},
      "model_variants": {
         "default": {
            "layer": "hat",
            "transparent": "false",
            "models": [
               "file(shepherd_hat.qb)"
            ]
         },
         "female": {
            "layer": "hat",
            "transparent": "false",
            "models": [
               "file(shepherd_hat_female.qb)"
            ]
         }
      },
      "stonehearth:equipment_piece": {
         "render_type": "merge_with_model",
         "slot": "helmet",
         "ilevel": 2,
         "no_drop": true
      }
   },
   "entity_data": {
      "stonehearth:catalog": {
         "display_name": "i18n(serene_league:jobs.shepherd.shepherd_outfit.shepherd_hat.display_name)",
         "description": "i18n(serene_league:jobs.shepherd.shepherd_outfit.shepherd_hat.description)",
         "icon": "file(shepherd_hat.png)"
      }
   }
}
