{
   "type": "entity",
   "mixins": "file(brewer_wine_cask_red_wine_ghost.json)",
   "components": {
      "stonehearth:entity_forms": {
         "ghost_form": "file(brewer_wine_cask_red_wine_ghost.json)",
         "iconic_form": "file(brewer_wine_cask_red_wine_iconic.json)",
         "placeable_on_ground": true
      },
      "destination": {
         "region": [
            {
               "min": { "x": -1, "y": -2, "z": -1 },
               "max": { "x": 1, "y": 1, "z": 1 }
            }
         ]
      },
      "region_collision_shape": {
         "region": [
            {
               "min": { "x": -1, "y": 0, "z": -1 },
               "max": { "x": 1, "y": 2, "z": 1 }
            }
         ]
      },
      "stonehearth_ace:stump": {},
      "stonehearth:resource_node": {
         "category": "brewing",
         "resource": "serene_league:drink:red_wine",
         "harvest_overlay_effect": "stonehearth_ace:effects:harvest_prepared_drink_overlay_effect",
         "harvester_effect": "fiddle",
         "durability": 1,
         "resource_loot_table": {
            "entries": {
               "optional": {
                  "num_rolls": {
                     "min": 2,
                     "max": 3
                  },
                  "items": {
                     "cheese_slice": {
                        "uri": "serene_league:drink:red_wine"
                     }
                  }
               }
            }
         }
      }
   },
   "entity_data": {
      "stonehearth:stump_data": {
         "stump_alias": "stonehearth_ace:brewer:wine_cask:empty",
         "apply_quality": false,
         "transform_option_key": "red_wine"
      },
      "stonehearth:net_worth": {
         "value_in_gold": 58,
         "rarity": "common",
         "shop_info": {
            "buyable": false,
            "sellable": false
         }
      },
      "stonehearth:appeal": {
         "appeal": 11
      },
      "stonehearth:item_quality": {
         "variable_quality": true
      }
   }
}
