{
   "type": "entity",
   "mixins": [
      "serene_league:mixins:window:frame:wide",
      "file(plastered_window_frame_wide_ghost.json)"
   ],
   "components": {
      "stonehearth:entity_forms": {
         "iconic_form": "file(plastered_window_frame_wide_iconic.json)",
         "ghost_form": "file(plastered_window_frame_wide_ghost.json)"
      }
   },
   "entity_data": {
      "stonehearth:net_worth": {
         "value_in_gold": 5,
         "rarity": "common",
         "shop_info": {
            "buyable": true,
            "sellable": true,
            "shopkeeper_level": 1,
            "shopkeeper_type": "caravan"
         }
      },
      "stonehearth:appeal": {
         "appeal": 7
      },
      "stonehearth:item_quality": {
         "variable_quality": true
      }
   }
}
