{
  "type": "entity",
  "mixins": [
    "serene_league:mixins:equipment:body_model:serene_league",
    "stonehearth:knight:outfit"
  ],
  "components": {
    "model_variants": {
      "mixintypes": {
        "default": "override",
        "female": "override"
      },
      "default": {
        "layer": "clothing",
        "transparent": "false",
        "models": [
          "file(knight_outfit.qb)"
        ]
      },
      "female": {
        "layer": "clothing",
        "transparent": "false",
        "models": [
          "file(knight_outfit_female.qb)"
        ]
      }
    }
  },
  "entity_data": {
    "stonehearth:catalog": {
      "icon": "file(knight_outfit.png)"
    }
  }
}