{
   "type": "entity",
   "mixins": "file(plaster_bench_ghost.json)",
   "components": {
      "stonehearth:entity_forms": {
         "iconic_form": "file(plaster_bench_iconic.json)",
         "ghost_form": "file(plaster_bench_ghost.json)",
         "placeable_on_ground": true
      },
      "region_collision_shape": {
         "region": [
            {
               "min": { "x": -1, "y": 0, "z": 0 },
               "max": { "x": 2, "y": 2, "z": 1 }
            }
         ]
      },
      "stonehearth:mount": {
         "mounted_posture": "stonehearth:sitting_on_chair"
      },
      "stonehearth:traveler_attraction": {}
   },
   "entity_data": {
      "stonehearth:chair": {},
      "stonehearth:net_worth": {
         "value_in_gold": 7,
         "rarity": "common",
         "shop_info": {
            "buyable": true,
            "sellable": true,
            "shopkeeper_level": 1,
            "shopkeeper_type": "caravan"
         }
      },
      "stonehearth:appeal": {
         "appeal": 6
      },
      "stonehearth:item_quality": {
         "variable_quality": true
      }
   }
}
