{
   "mixins": [
      "serene_league:stonehearth_ace:portals:animal_door_ghost",
      "stonehearth:mixins:placed_object"
   ],
   "type": "entity",
   "components": {
      "model_variants": {
         "default": {
            "models": [
               "file(plastered_animal_door.qb)"
            ]
         }
      }
   },
   "entity_data": {
      "stonehearth:catalog": {
         "display_name": "i18n(serene_league:entities.construction.plastered_animal_door.display_name)",
         "description": "i18n(serene_league:entities.construction.plastered_animal_door.description)",
         "icon": "file(plastered_animal_door.png)",
         "material_tags": [
            "stone",
            "plaster",
            "crafted",
            "serene_league"
         ]
      }
   }
}
