{
   "type": "entity",
   "mixins": "file(plaster_table_covered_ghost.json)",
   "components": {
      "stonehearth:entity_forms": {
         "iconic_form": "file(plaster_table_covered_iconic.json)",
         "ghost_form": "file(plaster_table_covered_ghost.json)",
         "placeable_on_ground": true
      },
      "region_collision_shape": {
         "region": [
            {
               "min": { "x": -0.5, "y": 0, "z": -0.5 },
               "max": { "x": 1.5, "y": 1, "z": 1.5 }
            }
         ]
      }
   },
   "entity_data": {
      "stonehearth:net_worth": {
         "value_in_gold": 17,
         "rarity": "uncommon",
         "shop_info": {
            "buyable": true,
            "sellable": true,
            "shopkeeper_level": 2,
            "shopkeeper_type": "caravan"
         }
      },
      "stonehearth:appeal": {
         "appeal": 13
      },
      "stonehearth:item_quality": {
         "variable_quality": true
      }
   }
}
