{
   "mixins": "stonehearth:mixins:item_properties",
   "type": "entity",
   "components": {
      "model_variants": {
         "default": {
            "models": [
               "file(juice_grape_serving.qb)"
            ]
         }
      }
   },
   "entity_data": {
      "stonehearth:item": {
         "category": "drink",
         "destroy_on_uncarry": true
      },
      "stonehearth_ace:drink": {
         "stonehearth:sitting_on_chair": {
            "satisfaction": 60
         },
         "default": {
            "satisfaction": 45
         },
         "applied_buffs": [
            "stonehearth_ace:buffs:consumption:fruity_flavors"
         ],
         "quality": 2
      },
      "stonehearth:catalog": {
         "display_name": "i18n(serene_league:entities.drink.juice_grape.juice_grape_serving.display_name)",
         "description": "",
         "material_tags": [
            "drink",
            "juice_grape_serving",
            "juice",
            "morning_time"
         ],
         "subject_override": "serene_league:drink:juice_grape"
      }
   }
}
