{
   "mixins": "stonehearth:mixins:placed_object",
   "type": "entity",
   "components": {
      "render_info": {
         "scale": 0.13
      },
      "model_variants": {
         "default": {
            "models": [
               "file(purslane_plant.qb)"
            ]
         }
      },
      "mob": {
         "model_origin": { "x": 0, "y": 0, "z": 0 },
         "mob_collision_type": "clutter",
         "region_origin": { "x": 0.5, "y": 0, "z": 0.5 }
      }
   },
   "entity_data": {
      "stonehearth:catalog": {
         "display_name": "i18n(serene_league:entities.plants.purslane.display_name)",
         "description": "i18n(serene_league:entities.plants.purslane.description)",
         "icon": "file(purslane_plant.png)",
         "category": "plants",
         "material_tags": ["plant", "stockpile_plant", "decoration"]
      }
   }
}
