{
   "mixins": "stonehearth:mixins:item_properties",
   "type": "entity",
   "components": {
      "model_variants": {
         "default": {
            "models": [
               "file(rooftile_corner_outer.qb)"
            ]
         }
      },
      "mob": {
         "model_origin": { "x": 0, "y": 0, "z": 0 }
      },
      "render_info": {
         "scale": 0.08
      }
   },
   "entity_data": {
      "stonehearth:catalog": {
         "is_item": true,
         "category": "decoration"
      }
   }
}