{
   "entity_data": {
      "stonehearth_ace:transform_data": {
         "transform_options": {
            "red_wine": {
               "transform_uri": "serene_league:brewer:wine_cask:unfermented_red_wine",
               "command": "serene_league:commands:transform:wine_cask_fill:unfermented_red_wine",
               "request_action": "stonehearth_ace:transform",
               "request_action_overlay_effect": "stonehearth_ace:effects:transform_brewer_overlay_effect",
               "transform_ingredient_uri": "serene_league:drink:must_red_grape",
               "auto_request": true,
               "worker_required_job": {
                  "stonehearth_ace:jobs:brewer": true
               },
               "apply_ingredient_quality": true
            }
         }
      }
   }
}
