{
   "mixins": [
      "stonehearth:mixins:item_properties",
      "file(cypress_seeds_ghost.json)"
   ],
   "type": "entity",
   "components": {
      "model_variants": {
         "default": {
            "models": [
               "file(cypress_seeds.qb)"
            ]
         }
      },
      "stonehearth:commands": {
         "commands": [
            "stonehearth:commands:use_seeds"
         ]
      },
      "stonehearth:entity_forms": {
         "iconic_form": "file(cypress_seeds_iconic.json)",
         "ghost_form": "file(cypress_seeds_ghost.json)",
         "placeable_on_ground": true
      },
      "mob": {
         "model_origin": { "x": 0, "y": 0, "z": 0 }
      }
   },
   "entity_data": {
      "stonehearth:net_worth": {
         "value_in_gold": 30,
         "rarity": "common",
         "shop_info": {
            "sellable": true,
            "shopkeeper_type": "caravan"
         }
      },
      "stonehearth:consumable": {
         "script": "stonehearth:consumables:scripts:unlock_crop",
         "crop": "cypress"
      },
      "stonehearth:catalog": {
         "display_name": "i18n(serene_league:entities.crops.cypress_seeds.display_name)",
         "description": "i18n(serene_league:entities.crops.cypress_seeds.description)",
         "icon": "file(cypress_seeds.png)",
         "category": "consumable",
         "material_tags": [
            "seeds",
            "small",
            "consumable",
            "stockpile_seeds_consumable"
         ]
      }
   }
}
