{
   "mixins": "stonehearth:mixins:placed_object",
   "components": {
      "model_variants": {
         "default": {
            "models": [
               "file(hanging_box_vines.qb)"
            ]
         }
      },
      "mob": {
         "model_origin": {"x": 0, "y": 0, "z": 0.2 },
         "region_origin": {"x": 0.5, "y": 0, "z": 0.5 },
         "allow_vertical_adjacent": true
      },
      "render_info": {
         "scale": 0.1
      }
   },
   "entity_data": {
      "stonehearth:catalog": {
         "display_name": "i18n(serene_league:entities.decoration.hanging_box_vines.display_name)",
         "description": "i18n(serene_league:entities.decoration.hanging_box_vines.description)",
         "icon": "file(hanging_box_vines.png)",
         "category": "decoration",
         "material_tags": ["decoration", "plaster", "vines", "crafted", "stockpile_decoration", "serene_league"]
      }
   }
}