{
   "type": "command",
   "name": "build_well_plaster",
   "group": "construction_choice",
   "display_name": "i18n(serene_league:data.commands.transform.build_well_plaster.display_name)",
   "description": "i18n(serene_league:data.commands.transform.build_well_plaster.description)",
   "default_enabled": true,
   "ordinal": 99.1,
   "icon": "/serene_league/entities/construction/plaster_water_well/plaster_water_well.png",
   "action": "call",
   "function": "stonehearth_ace:transform_command",
   "args": [
      "plaster_well"
   ]
}
