{
   "mixins": "stonehearth:mixins:placed_object",
   "components": {
      "model_variants": {
         "default": {
            "models": [
               "file(brewer_fermenting_carboy_red_wine.qb)"
            ]
         }
      },
      "mob": {
         "align_to_grid": [
            "x",
            "z"
         ],
         "model_origin": { "x": 0, "y": 0, "z": 0 },
         "region_origin": { "x": 0, "y": 0, "z": 0 }
      },
      "render_info": {
         "color_map": "stonehearth_ace:color_map:ace",
         "material_maps": [
            "/stonehearth/data/materials/material_maps/mob_material_map.json"
         ]
      }
   },
   "entity_data": {
      "stonehearth:catalog": {
         "display_name": "i18n(serene_league:jobs.brewer.brewer_fermenting_carboy_red_wine.display_name)",
         "description": "i18n(serene_league:jobs.brewer.brewer_fermenting_carboy_red_wine.description)",
         "icon": "file(brewer_fermenting_carboy_red_wine.png)",
         "category": "workshops",
         "material_tags": [
            "stockpile_tool"
         ]
      }
   }
}
