{
  "crops": {
    "purslane": {
      "plant_uri": "serene_league:plants:purslane",
      "product_uri": "serene_league:resources:herb:purslane",
      "harvester_effect": "fiddle",
      "render_scale": 0.105,
      "tending_multiplier": 0.5,
      "category": "herb",
      "level": 1,
      "growth_time": "16h+2h",
      "bonus_product_growth_time": "32h",
      "post_harvest_growth_level": 2,
      "growth_levels": [
        {
          "model": "file(crops/planter/purslane/purslane_1.qb)",
          "offset": {
            "x": 3.5,
            "y": 0,
            "z": 3.5
          }
        },
        {
          "model": "file(crops/planter/purslane/purslane_2.qb)",
          "offset": {
            "x": 3.5,
            "y": 0,
            "z": 3.5
          }
        },
        {
          "model": "file(crops/planter/purslane/purslane_3.qb)",
          "offset": {
            "x": 3.5,
            "y": 0,
            "z": 3.5
          }
        },
        {
          "model": "file(crops/planter/purslane/purslane_4.qb)",
          "offset": {
            "x": 3.5,
            "y": 0,
            "z": 3.5
          }
        }
      ],
      "display_name": "i18n(serene_league:herbalist_crops.purslane.display_name)",
      "description": "i18n(serene_league:herbalist_crops.purslane.description)",
      "harvest_status_text": "i18n(serene_league:herbalist_crops.purslane.harvest_text)",
      "icon": "file(../../entities/plants/purslane/purslane_plant.png)"
    },
    "lavender": {
      "plant_uri": "serene_league:plants:lavender",
      "product_uri": "serene_league:resources:herb:lavender",
      "harvester_effect": "fiddle",
      "render_scale": 0.085,
      "tending_multiplier": 0.3,
      "category": "herb",
      "level": 2,
      "growth_time": "18h+3h",
      "bonus_product_growth_time": "36h",
      "post_harvest_growth_level": 2,
      "growth_levels": [
        {
          "model": "/serene_league/entities/crops/lavender/lavender_1.qb",
          "offset": {
            "x": 4.5,
            "y": 0,
            "z": 4.5
          }
        },
        {
          "model": "/serene_league/entities/crops/lavender/lavender_2.qb",
          "offset": {
            "x": 4.5,
            "y": 0,
            "z": 4.5
          }
        },
        {
          "model": "/serene_league/entities/crops/lavender/lavender_3.qb",
          "offset": {
            "x": 4.5,
            "y": 0,
            "z": 4.5
          }
        },
        {
          "model": "/serene_league/entities/plants/lavender/lavender_plant.qb",
          "offset": {
            "x": 4.5,
            "y": 0,
            "z": 4.5
          }
        }
      ],
      "display_name": "i18n(serene_league:herbalist_crops.lavender.display_name)",
      "description": "i18n(serene_league:herbalist_crops.lavender.description)",
      "harvest_status_text": "i18n(serene_league:herbalist_crops.lavender.harvest_text)",
      "icon": "file(../../entities/plants/lavender/lavender_plant.png)"
    },
    "dandelions": {
      "plant_uri": "serene_league:vines:dandelions",
      "product_uri": "serene_league:resources:herb:dandelion",
      "harvester_effect": "fiddle",
      "render_scale": 0.1,
      "tending_multiplier": 0.1,
      "category": "herb",
      "level": 1,
      "growth_time": "22h+4h",
      "bonus_product_growth_time": "24h",
      "post_harvest_growth_level": 2,
      "growth_levels": [
        {
          "model": "file(crops/planter/dandelions/dandelions_1.qb)",
          "offset": {
            "x": 5,
            "y": 0,
            "z": 5
          }
        },
        {
          "model": "file(crops/planter/dandelions/dandelions_2.qb)",
          "offset": {
            "x": 5,
            "y": 0,
            "z": 5
          }
        },
        {
          "model": "file(crops/planter/dandelions/dandelions_3.qb)",
          "offset": {
            "x": 5,
            "y": 0,
            "z": 5
          }
        },
        {
          "model": "file(crops/planter/dandelions/dandelions_4.qb)",
          "offset": {
            "x": 5,
            "y": 0,
            "z": 5
          }
        }
      ],
      "display_name": "i18n(serene_league:herbalist_crops.dandelions.display_name)",
      "description": "i18n(serene_league:herbalist_crops.dandelions.description)",
      "harvest_status_text": "i18n(serene_league:herbalist_crops.dandelions.harvest_text)",
      "icon": "file(crops/planter/dandelions/dandelions.png)"
    },
    "cypress_sapling": {
      "seed_uri": "serene_league:trees:cypress:seed",
      "product_uri": "serene_league:trees:cypress:sapling",
      "harvester_effect": "fiddle",
      "render_scale": 0.1,
      "tending_multiplier": 0.05,
      "category": "sapling",
      "level": 3,
      "growth_time": "21h+4h",
      "growth_levels": [
        {
          "model": "file(crops/sapling_planter/cypress_sapling/cypress_sapling_1.qb)",
          "offset": {
            "x": 2,
            "y": 0,
            "z": 2
          }
        },
        {
          "model": "/serene_league/entities/trees/cypress/sprout/sprout.qb",
          "offset": {
            "x": 2.5,
            "y": 0,
            "z": 1.5
          }
        },
        {
          "model": "/serene_league/entities/trees/cypress/stem/stem.qb",
          "offset": {
            "x": 3,
            "y": 0,
            "z": 3
          }
        },
        {
          "model": "/serene_league/entities/trees/cypress/bud/bud.qb",
          "offset": {
            "x": 4,
            "y": 0,
            "z": 4
          }
        }
      ],
      "display_name": "i18n(serene_league:herbalist_crops.cypress_sapling.display_name)",
      "description": "i18n(serene_league:herbalist_crops.cypress_sapling.description)",
      "harvest_status_text": "i18n(serene_league:herbalist_crops.cypress_sapling.harvest_text)",
      "icon": "/serene_league/entities/crops/cypress/cypress_crop.png"
    },
    "lemon_sapling": {
      "seed_uri": "serene_league:trees:lemon:seed",
      "product_uri": "serene_league:trees:lemon:sapling",
      "harvester_effect": "fiddle",
      "render_scale": 0.15,
      "tending_multiplier": 0.05,
      "category": "sapling",
      "level": 4,
      "growth_time": "18h+6h",
      "growth_levels": [
        {
          "model": "/serene_league/entities/trees/lemon/seed/seed_iconic.qb",
          "offset": {
            "x": 1.5,
            "y": 2,
            "z": 1.5
          }
        },
        {
          "model": "/serene_league/entities/trees/lemon/sprout/sprout.qb",
          "offset": {
            "x": 2.5,
            "y": 0,
            "z": 1.5
          }
        },
        {
          "model": "/serene_league/entities/trees/lemon/stem/stem.qb",
          "offset": {
            "x": 2.5,
            "y": 0,
            "z": 2.5
          }
        },
        {
          "model": "/serene_league/entities/trees/lemon/bud/bud.qb",
          "offset": {
            "x": 2.5,
            "y": 0,
            "z": 2.5
          }
        }
      ],
      "display_name": "i18n(serene_league:herbalist_crops.lemon_sapling.display_name)",
      "description": "i18n(serene_league:herbalist_crops.lemon_sapling.description)",
      "harvest_status_text": "i18n(serene_league:herbalist_crops.lemon_sapling.harvest_text)",
      "icon": "/serene_league/entities/crops/lemon/lemon_crop.png"
    },
    "olive_sapling": {
      "seed_uri": "serene_league:trees:olive:seed",
      "product_uri": "serene_league:trees:olive:sapling",
      "harvester_effect": "fiddle",
      "render_scale": 0.033,
      "tending_multiplier": 0.05,
      "category": "sapling",
      "level": 5,
      "growth_time": "21h+4h",
      "growth_levels": [
        {
          "model": "/serene_league/entities/trees/olive/seed/seed_iconic.qb",
          "offset": {
            "x": 2,
            "y": 0,
            "z": 2
          }
        },
        {
          "model": "/serene_league/entities/trees/olive/sprout/sprout.qb",
          "offset": {
            "x": 1,
            "y": 0,
            "z": 1
          }
        },
        {
          "model": "/serene_league/entities/trees/olive/stem/stem.qb",
          "offset": {
            "x": 4,
            "y": 0,
            "z": 4
          }
        },
        {
          "model": "/serene_league/entities/trees/olive/bud/bud.qb",
          "offset": {
            "x": 15,
            "y": 0,
            "z": 15
          }
        }
      ],
      "display_name": "i18n(serene_league:herbalist_crops.olive_sapling.display_name)",
      "description": "i18n(serene_league:herbalist_crops.olive_sapling.description)",
      "harvest_status_text": "i18n(serene_league:herbalist_crops.olive_sapling.harvest_text)",
      "icon": "/serene_league/entities/crops/olive/olive_crop.png"
    },
    "stone_pine_sapling": {
      "seed_uri": "serene_league:trees:stone_pine:seed",
      "product_uri": "serene_league:trees:stone_pine:sapling",
      "harvester_effect": "fiddle",
      "render_scale": 0.1,
      "tending_multiplier": 0.05,
      "category": "sapling",
      "level": 3,
      "growth_time": "21h+4h",
      "growth_levels": [
        {
          "model": "file(crops/sapling_planter/stone_pine_sapling/stone_pine_sapling_1.qb)",
          "offset": {
            "x": 2,
            "y": 0,
            "z": 2
          }
        },
        {
          "model": "file(crops/sapling_planter/stone_pine_sapling/stone_pine_sapling_2.qb)",
          "offset": {
            "x": 0.5,
            "y": 0,
            "z": 0.5
          }
        },
        {
          "model": "file(crops/sapling_planter/stone_pine_sapling/stone_pine_sapling_3.qb)",
          "offset": {
            "x": 2.5,
            "y": 0,
            "z": 2.5
          }
        },
        {
          "model": "file(crops/sapling_planter/stone_pine_sapling/stone_pine_sapling_4.qb)",
          "offset": {
            "x": 3.5,
            "y": 0,
            "z": 3.5
          }
        }
      ],
      "display_name": "i18n(serene_league:herbalist_crops.stone_pine_sapling.display_name)",
      "description": "i18n(serene_league:herbalist_crops.stone_pine_sapling.description)",
      "harvest_status_text": "i18n(serene_league:herbalist_crops.stone_pine_sapling.harvest_text)",
      "icon": "/serene_league/entities/crops/stone_pine/stone_pine_crop.png"
    }
  }
}