{
  "type": "recipe",
  "mixins": [
    "/stonehearth_ace/jobs/weaver/recipes/ornate_cleric_armor_recipe.json"
  ],
  "recipe_name": "i18n(serene_league:entities.armor.ornate_cleric_armor.display_name)",
  "description": "i18n(serene_league:entities.armor.ornate_cleric_armor.recipe.description)",
  "flavor": "i18n(serene_league:entities.armor.ornate_cleric_armor.recipe.flavor)",
  "portrait": "/serene_league/entities/armor/ornate_cleric_armor/ornate_cleric_armor.png",
  "mixintypes": {
    "produces": "override"
  },
  "produces": [
    {
      "item": "serene_league:armor:ornate_cleric_armor"
    }
  ]
}