{
   "type": "entity",
   "mixins": [
      "serene_league:lostems:skin_changer:ghost",
      "serene_league:mixins:window:tall:ghost"
   ],
   "components": {
      "model_variants": {
         "default": {
            "models": [
               "file(plastered_window_tall.qb)"
            ]
         }
      }
   },
   "entity_data": {
      "stonehearth:catalog": {
         "display_name": "i18n(serene_league:entities.construction.plastered_window_tall.display_name)",
         "description": "i18n(serene_league:entities.construction.plastered_window_tall.description)",
         "icon": "file(plastered_window_tall.png)",
         "category": "window",
         "material_tags": [
            "stone",
            "plaster",
            "crafted",
            "serene_league"
         ]
      },
      "lostems:skin_info": {
         "default_skin": "brown",
         "skins": {
            "brown": {
               "icon": "file(plastered_window_tall.png)",
               "ordinal": 1,
               "attached_entities": false
            },
            "red": {
               "icon": "file(skins/red.png)",
               "ordinal": 2,
               "attached_entities": [
                  "file(skins/red.json)"
               ]
            },
            "green": {
               "icon": "file(skins/green.png)",
               "ordinal": 3,
               "attached_entities": [
                  "file(skins/green.json)"
               ]
            },
            "blue": {
               "icon": "file(skins/blue.png)",
               "ordinal": 4,
               "attached_entities": [
                  "file(skins/blue.json)"
               ]
            }
         }
      }
   }
}