{
   "type": "entity",
   "mixins": [
      "serene_league:lostems:skin_changer:ghost",
      "stonehearth:mixins:portals:single_door:ghost",
      "stonehearth:mixins:placed_object"
   ],
   "components": {
      "model_variants": {
         "default": {
            "models": [
               "file(plastered_door.qb)"
            ]
         }
      },
      "stonehearth:fixture": {
         "valign": "bottom",
         "cursor": "stonehearth:cursors:create_door",
         "margin": {
            "left": 0,
            "right": 0,
            "top": 0,
            "bottom": 0
         },
         "bounds": {
            "min": {
               "x": -1,
               "y": 0
            },
            "max": {
               "x": 2,
               "y": 4
            }
         }
      }
   },
   "entity_data": {
      "stonehearth:catalog": {
         "display_name": "i18n(serene_league:entities.construction.plastered_door.display_name)",
         "description": "i18n(serene_league:entities.construction.plastered_door.description)",
         "icon": "file(plastered_door.png)",
         "category": "door",
         "material_tags": ["stone", "plaster", "portal", "crafted", "door", "stockpile_portal", "serene_league"]
      },
      "lostems:skin_info": {
         "default_skin": "brown",
         "skins": {
            "brown": {
               "icon": "file(plastered_door.png)",
               "ordinal": 1,
               "attached_entities": false
            },
            "red": {
               "icon": "file(skins/red.png)",
               "ordinal": 2,
               "attached_entities": [
                  "file(skins/red.json)"
               ]
            },
            "green": {
               "icon": "file(skins/green.png)",
               "ordinal": 3,
               "attached_entities": [
                  "file(skins/green.json)"
               ]
            },
            "blue": {
               "icon": "file(skins/blue.png)",
               "ordinal": 4,
               "attached_entities": [
                  "file(skins/blue.json)"
               ]
            }
         }
      }
   }
}