{
  "mixins": [
    "/serene_league/entities/decoration/window_box_plaster_long/window_box_plaster_long_ghost.json"
  ],
  "entity_data": {
    "stonehearth:catalog": {
      "display_name": "i18n(serene_league:entities.decoration.plaster_box_long_lavender.stonehearth_ace.display_name)",
      "description": "i18n(serene_league:entities.decoration.plaster_box_long_lavender.stonehearth_ace.description)"
    }
  }
}