{
  "mixins": [
    "stonehearth:armor:bronze_helm"
  ],
  "type": "entity",
  "components": {
    "model_variants": {
      "mixintypes": {
        "default": "override",
        "female": "override"
      },
      "default": {
        "layer": "hat",
        "transparent": false,
        "models": [
          "file(bronze_hat.qb)"
        ]
      },
      "female": {
        "layer": "hat",
        "transparent": false,
        "models": [
          "file(bronze_hat_female.qb)"
        ]
      }
    },
    "stonehearth:entity_forms": {
      "iconic_form": "file(bronze_hat_iconic.json)"
    }
  },
  "entity_data": {
    "stonehearth:catalog": {
      "display_name": "i18n(serene_league:entities.armor.bronze_hat.display_name)",
      "description": "i18n(serene_league:entities.armor.bronze_hat.description)",
      "icon": "file(bronze_hat.png)",
      "mixintypes": {
        "material_tags": "override"
      },
      "material_tags": [
        "bronze",
        "armor",
        "helmet",
        "medium_armor",
        "serene_league_made",
        "crafted",
        "stockpile_equipment"
      ]
    }
  }
}