{
  "mixins": [
    "stonehearth:armor:iron_mail"
  ],
  "type": "entity",
  "components": {
    "model_variants": {
      "mixintypes": {
        "default": "override",
        "female": "override",
        "orc_male": "override",
        "orc_female": "override"
      },
      "default": {
        "layer": "armor",
        "transparent": false,
        "models": [
          "file(iron_uniform.qb)"
        ]
      },
      "female": {
        "layer": "armor",
        "transparent": false,
        "models": [
          "file(iron_uniform_female.qb)"
        ]
      },
      "orc_male": {
        "layer": "armor",
        "models": [
          "file(iron_uniform_orc_male.qb)"
        ]
      },
      "orc_female": {
        "layer": "armor",
        "models": [
          "file(iron_uniform_orc_female.qb)"
        ]
      }
    },
    "stonehearth:entity_forms": {
      "iconic_form": "file(iron_uniform_iconic.json)"
    }
  },
  "entity_data": {
    "stonehearth:catalog": {
      "display_name": "i18n(serene_league:entities.armor.iron_uniform.display_name)",
      "description": "i18n(serene_league:entities.armor.iron_uniform.description)",
      "icon": "file(iron_uniform.png)",
      "mixintypes": {
        "material_tags": "override"
      },
      "material_tags": [
        "iron",
        "armor",
        "medium_armor",
        "torso",
        "serene_league_made",
        "crafted",
        "stockpile_equipment"
      ]
    }
  }
}