{
   "mixins": "stonehearth:mixins:boulder",
   "type": "entity",
   "components": {
      "model_variants": {
         "default": {
            "models": [
               "file(small_coast_boulder_1.qb)"
            ]
         }
      },
      "stonehearth:resource_node": {
         "durability": 1
      },
      "mob": {
         "model_origin": {
            "x": -0.5,
            "y": 0,
            "z": 0.5
         },
         "region_origin": {
            "x": -0.5,
            "y": 0,
            "z": 0.5
         },
         "align_to_grid": [
            "x",
            "z"
         ]
      },
      "destination": {
         "region": [
            {
               "min": {
                  "x": -1,
                  "y": 0,
                  "z": 0
               },
               "max": {
                  "x": 0,
                  "y": 1,
                  "z": 1
               }
            }
         ]
      },
      "region_collision_shape": {
         "region_from_model": {
            "model": "file(small_coast_boulder_1.qb)"
         }
      }
   },
   "entity_data": {
      "stonehearth:catalog": {
         "display_name": "i18n(stonehearth:entities.boulders.small_boulder.display_name)",
         "description": "i18n(stonehearth:entities.boulders.small_boulder.description)"
      },
      "stonehearth:appeal": {
         "appeal": -1
      }
   }
}