{
   "type": "entity",
   "mixins": [
      "stonehearth:mixins:placed_object",
      "serene_league:mixins:ace:coast_growth_rates"
   ],
   "components": {
      "render_info": {
         "scale": 0.2
      },
      "stonehearth:evolve": {},
      "model_variants": {
         "default": {
            "models": [
               "file(stem.qb)"
            ]
         }
      },
      "mob": {
         "model_origin": { "x": 0, "y": 0, "z": 0 },
         "region_origin": { "x": 0.5, "y": 0, "z": 0.5 },
         "mob_collision_type": "clutter"
      }
   },
   "entity_data": {
      "stonehearth:evolve_data": {
         "next_stage": "serene_league:trees:cypress:bud",
         "evolve_time": "14h+2h"
      },
      "stonehearth:catalog": {
         "material_tags": ["stockpile_plant"],
         "display_name": "i18n(serene_league:entities.trees.cypress.stem.display_name)",
         "description": "i18n(serene_league:entities.trees.cypress.stem.description)",
         "category": "plants"
      },
      "stonehearth:appeal": {
         "appeal": 1
      }
   }
}
