{
   "mixins": "/stonehearth/jobs/blacksmith/recipes/recipes.json",
   "craftable_recipes": {
      "tools": {
         "recipes": {
            "engineer_wrench": {
               "recipe": "file(engineer_wrench_recipe.json)"
            }
         }
      },
      "armor": {
         "recipes": {
            "bronze_helm": {
               "recipe": "file(bronze_hat_recipe.json)"
            },
            "bronze_breastplate": {
               "recipe": "file(bronze_uniform_recipe.json)"
            },
            "iron_helm": {
               "recipe": "file(iron_hat_recipe.json)"
            },
            "iron_mail": {
               "recipe": "file(iron_uniform_recipe.json)"
            }
         }
      }
   }
}
