{
   "components": {
      "stonehearth:entity_forms": {
         "placeable_on_walls": true,
         "placeable_on_ground": true,
         "hide_placement_ui": false
      },
      "mob": {
         "mob_collision_type": "clutter"
      },
      "movement_modifier_shape": {
         "modifier": -0.5,
         "nav_preference_modifier": -0.5,
         "region": [
            {
               "min": { "x": -1, "y": 0, "z": -1 },
               "max": { "x": 1, "y": 3, "z": 2 }
            }
         ]
      }
   }
}
