{
   "mixintypes": {"type": "remove"},
   "mixins": [
      "stonehearth:mixins:placed_object"
   ],
   "components": {
      "mob": {},
      "stonehearth:fixture": {
         "cursor": "stonehearth:cursors:create_window",
         "margin": {
            "left": 0,
            "right": 0,
            "top": 0,
            "bottom": 0
         },
         "bounds": {
            "min": { "x": -1, "y": 0 },
            "max": { "x": 2, "y": 3 }
         }
      },
      "stonehearth:portal": {
         "cutter": [
            {
               "min": { "x": -1, "y": 0 },
               "max": { "x": 2, "y": 3 }
            }
         ]
      }
   },
   "entity_data": {
      "stonehearth:catalog": {
         "category": "window",
         "material_tags": ["portal", "window", "stockpile_portal"]
      }
   }
}
