{
   "mixins": "stonehearth:mixins:placed_object",
   "type": "entity",
   "components": {
      "model_variants": {
         "default": {
            "models": [
               "file(camp_standard.qb)"
            ]
         }
      },
      "mob": {
         "model_origin": { "x": -0.05, "y": 0, "z": 0 },
         "region_origin": { "x": 0.5, "y": 0, "z": 0.5 }
      },
      "render_info": {
         "scale": 0.05
      }
   },
   "entity_data": {
      "stonehearth:catalog": {
         "display_name": "i18n(stonehearth:entities.gizmos.camp_standard.camp_standard_ghost.display_name)",
         "description": "i18n(stonehearth:entities.gizmos.camp_standard.camp_standard_ghost.description)",
         "icon": "file(camp_standard.png)",
         "category": "decoration",
         "material_tags": ["wood", "cloth", "decoration", "stockpile_decoration"]
      }
   }
}
