{
  "type": "entity",
  "mixins": [
    "serene_league:trees:olive:medium"
  ],
  "components": {
    "mixintypes": {
      "stonehearth:commands": "remove",
      "stonehearth:entity_forms": "remove",
      "stonehearth:evolve": "remove",
      "stonehearth_ace:transform": "remove"
    }
  },
  "entity_data": {
    "stonehearth_ace:evolve_modifiers": {
      "allow_manual_stunting": false
    },
    "mixintypes": {
      "stonehearth:evolve_data": "remove",
      "stonehearth_ace:transform_data": "remove",
      "stonehearth_ace:replant_data": "remove"
    }
  }
}