{
  "type": "entity",
  "mixins": [
    "file(lavender_plant_ghost.json)",
    "serene_league:mixins:ace:coast_renewal_rates"
  ],
  "components": {
    "model_variants": {
      "depleted": {
        "models": [
          "file(lavender_plant_harvested.qb)"
        ]
      },
      "half_renewed": {
        "models": [
          "file(lavender_plant_half_renewed.qb)"
        ]
      }
    },
    "stonehearth:renewable_resource_node": {
      "category": "harvest",
      "half_renewed_model_variant": true,
      "harvest_overlay_effect": "stonehearth:effects:harvest_plant_overlay_effect",
      "resource_spawn_effect": "stonehearth:effects:harvest_plants_effect",
      "unripe_description": "i18n(serene_league:entities.plants.lavender.unripe_description)",
      "renewal_time": "22h+2h",
      "resource_loot_table": {
        "entries": {
          "mandatory": {
            "items": {
              "none": {
                "uri": "serene_league:resources:herb:lavender",
                "weight": 1
              }
            }
          },
          "optional": {
            "num_rolls": {
              "min": 1,
              "max": 1
            },
            "items": {
              "none": {
                "uri": "",
                "weight": 4
              },
              "pelt": {
                "uri": "serene_league:plants:lavender:seed",
                "weight": 1
              }
            }
          }
        }
      }
    },
    "stonehearth:entity_forms": {
      "iconic_form": "file(lavender_plant_iconic.json)",
      "ghost_form": "file(lavender_plant_ghost.json)",
      "placeable_on_ground": true,
      "hide_undeploy_ui": false
    }
  },
  "entity_data": {
    "stonehearth:net_worth": {
      "value_in_gold": 1,
      "rarity": "common",
      "shop_info": {
        "buyable": false,
        "sellable": true,
        "shopkeeper_type": "caravan"
      }
    },
    "stonehearth:appeal": {
      "appeal": 4
    }
  }
}