{
   "type": "recipe",
   "effort": 120,
   "work_units": 5,
   "recipe_name": "i18n(serene_league:entities.crops.olive_seeds.recipe.recipe_name)",
   "description": "i18n(serene_league:entities.crops.olive_seeds.recipe.description)",
   "flavor": "i18n(serene_league:entities.crops.olive_seeds.recipe.flavor)",
   "portrait": "/serene_league/entities/consumables/seeds/olive_seeds/olive_seeds.png",
   "workshop": "stonehearth:herbalist:workbench",
   "level_requirement": 2,
   "manual_unlock": true,
   "ingredients": [
      {
         "uri": "serene_league:trees:olive:seed",
         "count": 20
      }
   ],
   "produces": [
      {
         "item": "serene_league:consumables:seeds:olive_seeds"
      }
   ]
}
