{
   "type": "recipe",
   "effort": 120,
   "work_units": 5,
   "recipe_name": "i18n(serene_league:entities.crops.purslane_seeds.recipe.recipe_name)",
   "description": "i18n(serene_league:entities.crops.purslane_seeds.recipe.description_2)",
   "flavor": "i18n(serene_league:entities.crops.purslane_seeds.recipe.flavor_2)",
   "portrait": "/serene_league/entities/consumables/seeds/purslane_seeds/purslane_seeds.png",
   "workshop": "stonehearth:herbalist:workbench",
   "level_requirement": 2,
   "ingredients": [
      {
         "uri": "serene_league:resources:herb:purslane",
         "count": 30
      }
   ],
   "produces": [
      {
         "item": "serene_league:consumables:seeds:purslane_seeds"
      }
   ]
}
