{
   "mixins": [
      "stonehearth:mixins:placed_object",
      "file(../large/large_shell.json)"
   ],
   "type": "entity",
   "entity_data": {
      "stonehearth:catalog": {
         "display_name": "i18n(serene_league:entities.trees.olive.seed.display_name)",
         "description": "i18n(serene_league:entities.trees.olive.seed.description)",
         "icon": "file(seed.png)",
         "material_tags": [
            "plant"
         ],
         "category": "seed"
      }
   }
}
