{
   "mixins": [
      "stonehearth:mixins:item_properties"
   ],
   "type": "entity",
   "components": {
      "model_variants": {
         "default": {
            "models": [
               "file(plastered_window_tall.qb)"
            ]
         }
      },
      "render_info": {
         "scale": 0.03
      },
      "mob": {
         "model_origin": { "x": 0, "y": 0, "z": 0.05 }
      }
   },
   "entity_data": {
      "stonehearth:catalog": {
         "category": "window"
      }
   }
}