{
   "mixins": [
      "stonehearth:mixins:tree",
      "serene_league:mixins:ace:coast_growth_rates",
      "serene_league:mixins:ace:coast_renewal_rates"
   ],
   "type": "entity",
   "components": {
      "model_variants": {
         "default": {
            "models": [
               "file(medium.qb)"
            ]
         },
         "depleted": {
            "models": [
               "file(medium_depleted.qb)"
            ]
         },
         "half_renewed": {
            "models": [
               "file(medium_half_renewed.qb)"
            ]
         }
      },
      "stonehearth:renewable_resource_node": {
         "resource": "serene_league:food:lemons:lemon_basket",
         "category": "harvest",
         "renewal_time": "4d+18h",
         "harvest_overlay_effect": "stonehearth:effects:harvest_plant_overlay_effect",
         "half_renewed_model_variant": true,
         "resource_loot_table": {
            "entries": {
               "extra_fruits": {
                  "num_rolls": {
                     "min": 0,
                     "max": 1
                  },
                  "items": {
                     "fruits": {
                        "uri": "serene_league:food:lemons:lemon_basket",
                        "weight": 1
                     }
                  }
               },
               "optional": {
                  "num_rolls": {
                     "min": 0,
                     "max": 1
                  },
                  "items": {
                     "seed": {
                        "uri": "serene_league:trees:lemon:seed",
                        "weight": 1
                     }
                  }
               }
            }
         },
         "seasons": {
            "spring": {
               "renewal_time_multiplier": 4
            },
            "autumn": {
               "disable_renewal": true,
               "destroy_resource": true
            },
            "winter": {
               "disable_renewal": true,
               "destroy_resource": true
            }
         }
      },
      "stonehearth:resource_node": {
         "durability": 7,
         "resource": "stonehearth:resources:wood:oak_log"
      },
      "mob": {
         "model_origin": { "x": 0, "y": 0, "z": 0 },
         "region_origin": { "x": 0.5, "y": 0, "z": 0.5 }
      },
      "render_info": {
         "scale": 0.5
      },
      "destination": {
         "region": [
            {
               "min": { "x": -1, "y": 0, "z": -1 },
               "max": { "x": 2, "y": 1, "z": 2 }
            }
         ]
      },
      "region_collision_shape": {
         "region": [
            {
               "min": { "x": 0, "y": 0, "z": 0 },
               "max": { "x": 1, "y": 7, "z": 1 }
            }
         ]
      }
   },
   "entity_data": {
      "stonehearth:evolve_data": {
         "next_stage": "serene_league:trees:lemon:large",
         "evolve_time": "36d+18d"
      },
      "stonehearth:catalog": {
         "display_name": "i18n(serene_league:entities.trees.lemon.medium.display_name)",
         "description": "i18n(serene_league:entities.trees.lemon.medium.description)",
         "subject_override": "serene_league:trees:lemon:large"
      },
      "stonehearth:appeal": {
         "appeal": 4
      },
      "stonehearth:stump_data": {
         "stump_alias": "serene_league:trees:lemon:stump"
      },
      "stonehearth_ace:replant_data": {
         "seed_alias": "serene_league:trees:lemon:seed",
         "sapling_alias": "serene_league:trees:lemon:sapling"
      }
   }
}
