{
   "type": "entity",
   "components": {
      "model_variants": {
         "default": {
            "models": [
               "file(large_cypress_stump.qb)"
            ]
         }
      },
      "stonehearth:resource_node": {
         "resource": "stonehearth:resources:wood:juniper_log",
         "harvest_overlay_effect": "stonehearth:effects:chop_overlay_effect",
         "harvester_effect": "hoe",
         "description": "chop_tree"
      },
      "render_info": {
         "scale": 0.1
      },
      "mob": {
         "model_origin": { "x": 0, "y": 0, "z": 0 },
         "region_origin": { "x": 0.5, "y": 0, "z": 0.5 }
      },
      "destination": {
         "region": [
            {
               "min": { "x": -1, "y": 0, "z": -1 },
               "max": { "x": 2, "y": 1, "z": 2 }
            }
         ]
      },
      "region_collision_shape": {
         "region": [
            {
               "min": { "x": -1, "y": 0, "z": -1 },
               "max": { "x": 2, "y": 1.5, "z": 2 }
            }
         ]
      }
   },
   "entity_data": {
      "stonehearth:catalog": {
         "display_name": "i18n(serene_league:entities.trees.stump)",
         "description": "i18n(serene_league:entities.trees.stump_description)",
         "category": "plants"
      }
   }
}
