{
   "type": "entity",
   "mixins": "file(hanging_box_lavender_ghost.json)",
   "components": {
      "stonehearth:entity_forms": {
         "iconic_form": "file(hanging_box_lavender_iconic.json)",
         "ghost_form": "file(hanging_box_lavender_ghost.json)",
         "placeable_on_walls": true
      },
      "region_collision_shape": {
         "region": [
            {
               "min": { "x": 0, "y": 0, "z": -0.3 },
               "max": { "x": 1, "y": 2, "z": 1 }
            }
         ]
      }
   },
   "entity_data": {
      "stonehearth:net_worth": {
         "value_in_gold": 12,
         "rarity": "common",
         "shop_info": {
            "buyable": true,
            "sellable": true,
            "shopkeeper_level": 3,
            "shopkeeper_type": "caravan"
         }
      },
      "stonehearth:appeal": {
         "appeal": 8
      },
      "stonehearth:item_quality": {
         "variable_quality": true
      }
   }
}
