{
   "type": "animation",
   "total_frames": "1.0",
   "frames": [
      {
         "ATTOVERCOG": {
            "pos": [0.0,-24.839322,51.771926],
            "rot": [1.0,0.0,-0.0,0.0],
            "sca": [1.0,1.0,1.0]
         },
         "frame": {
            "pos": [0.0,-0.0,0.0],
            "rot": [1.0,0.0,-0.0,0.0],
            "sca": [1.0,1.0,1.0]
         },
         "head": {
            "pos": [0.0,-24.839322,21.061821],
            "rot": [1.0,0.0,-0.0,0.0],
            "sca": [1.0,1.0,1.0]
         },
         "leftShutter": {
            "pos": [8.0,0.0,19.0],
            "rot": [0.737277,0.0,-0.0,-0.67559],
            "sca": [1.0,1.0,1.0]
         },
         "rightShutter": {
            "pos": [-8.0,-0.0,19.0],
            "rot": [0.737277,0.0,-0.0,0.67559],
            "sca": [1.0,1.0,1.0]
         },
         "root": {
            "pos": [0.0,-0.0,0.0],
            "rot": [1.0,0.0,-0.0,0.0],
            "sca": [1.0,1.0,1.0]
         }
      },
      {
         "ATTOVERCOG": {
            "pos": [0.0,-24.839322,51.771926],
            "rot": [1.0,0.0,-0.0,0.0],
            "sca": [1.0,1.0,1.0]
         },
         "frame": {
            "pos": [0.0,-0.0,0.0],
            "rot": [1.0,0.0,-0.0,0.0],
            "sca": [1.0,1.0,1.0]
         },
         "head": {
            "pos": [0.0,-24.839322,21.061821],
            "rot": [1.0,0.0,-0.0,0.0],
            "sca": [1.0,1.0,1.0]
         },
         "leftShutter": {
            "pos": [8.0,0.0,19.0],
            "rot": [0.737277,0.0,-0.0,-0.67559],
            "sca": [1.0,1.0,1.0]
         },
         "rightShutter": {
            "pos": [-8.0,-0.0,19.0],
            "rot": [0.737277,0.0,-0.0,0.67559],
            "sca": [1.0,1.0,1.0]
         },
         "root": {
            "pos": [0.0,-0.0,0.0],
            "rot": [1.0,0.0,-0.0,0.0],
            "sca": [1.0,1.0,1.0]
         }
      }
   ]
}
