{
   "type": "animation",
   "total_frames": "1.0",
   "frames": [
      {
         "frame": {
            "pos": [0, 0, 0],
            "rot": [1, 0, 0, 0],
            "sca": [1, 1, 1]
         },
         "leftShutter": {
            "pos": [7.5, -6.5, 0],
            "rot": [0.996194698091746, 0, 0, -0.087155742747658],
            "sca": [1, 1, 1]
         },
         "rightShutter": {
            "pos": [-7.5, -6.5, 0],
            "rot": [0.996194698091746, 0, 0, 0.087155742747658],
            "sca": [1, 1, 1]
         },
         "root": {
            "pos": [0, 0, 0],
            "rot": [1, 0, 0, 0],
            "sca": [1, 1, 1]
         }
      },
      {
         "frame": {
            "pos": [0, 0, 0],
            "rot": [1, 0, 0, 0],
            "sca": [1, 1, 1]
         },
         "leftShutter": {
            "pos": [7.5, -6.5, 0],
            "rot": [0.996194698091746, 0, 0, -0.087155742747658],
            "sca": [1, 1, 1]
         },
         "rightShutter": {
            "pos": [-7.5, -6.5, 0],
            "rot": [0.996194698091746, 0, 0, 0.087155742747658],
            "sca": [1, 1, 1]
         },
         "root": {
            "pos": [0, 0, 0],
            "rot": [1, 0, 0, 0],
            "sca": [1, 1, 1]
         }
      }
   ]
}
