{
   "type": "entity",
   "mixins": [
      "stonehearth:mixins:placed_object",
      "serene_league:mixins:ace:coast_growth_rates"
   ],
   "components": {
      "stonehearth:evolve": {},
      "stonehearth:entity_forms": {
         "iconic_form": "file(seed_iconic.json)",
         "ghost_form": "file(seed_ghost.json)",
         "placeable_on_ground": true,
         "hide_undeploy_ui": true
      },
      "model_variants": {
         "default": {
            "models": [
               {
                  "type": "one_of",
                  "items": [
                     "/stonehearth/entities/plants/dirt_pile/dirt_pile_1.qb",
                     "/stonehearth/entities/plants/dirt_pile/dirt_pile_2.qb",
                     "/stonehearth/entities/plants/dirt_pile/dirt_pile_3.qb"
                  ]
               }
            ]
         }
      },
      "mob": {
         "model_origin": { "x": 0.1, "y": 0, "z": -0.1 },
         "region_origin": { "x": 0.5, "y": 0, "z": 0.5 },
         "mob_collision_type": "clutter"
      }
   },
   "entity_data": {
      "stonehearth:catalog": {
         "display_name": "i18n(serene_league:entities.trees.lemon.seed.display_name)",
         "description": "i18n(serene_league:entities.trees.lemon.seed.description)",
         "icon": "file(seed.png)",
         "material_tags": [
            "stockpile_plant",
            "plant",
            "resource",
            "seed",
            "seed_fruit",
            "cooking_ingredient",
            "stockpile_cooking_ingredient"
         ],
         "category": "seed"
      },
      "stonehearth:evolve_data": {
         "next_stage": "serene_league:trees:lemon:sprout",
         "evolve_time": "16h+12h"
      },
      "stonehearth:net_worth": {
         "value_in_gold": 2,
         "rarity": "common",
         "shop_info": {
            "buyable": false,
            "sellable": true,
            "shopkeeper_type": "caravan",
            "shopkeeper_level": 3
         }
      },
      "stonehearth:appeal": {
         "appeal": 1
      }
   }
}
