{
   "mixins": [
      "stonehearth:mixins:placed_object",
   ],
   "type": "entity",
   "components": {
      "model_variants": {
         "default": {
            "models": [
               "file(plaster_crude_bed.qb)"
            ]
         },
         "sleeping": {
            "models": [
               "file(plaster_crude_bed.qb)"
            ]
         }
      },
      "render_info": {
         "scale": 0.22
      },
      "mob": {
         "model_origin": { "x": 0, "y": 0, "z": 0 },
         "region_origin": { "x": 0.5, "y": 0, "z": 0.5 }
      }
   },
   "entity_data": {
      "stonehearth:catalog": {
         "display_name": "i18n(serene_league:entities.furniture.plaster_crude_bed.display_name)",
         "description": "i18n(serene_league:entities.furniture.plaster_crude_bed.description)",
         "icon": "file(plaster_crude_bed.png)",
         "category": "furniture",
         "material_tags":["stone", "plaster", "furniture", "crafted", "stockpile_furniture", "serene_league"]
      }
   }
}
