{
   "mixins": [
      "stonehearth:mixins:tree",
      "serene_league:mixins:ace:coast_growth_rates",
      "serene_league:mixins:ace:coast_renewal_rates"
   ],
   "type": "entity",
   "components": {
      "model_variants": {
         "default": {
            "models": [
               "file(small.qb)"
            ]
         },
         "depleted": {
            "models": [
               "file(small_depleted.qb)"
            ]
         },
         "half_renewed": {
            "models": [
               "file(small_half_renewed.qb)"
            ]
         }
      },
      "stonehearth:renewable_resource_node": {
         "resource": "serene_league:food:lemons:lemon_basket",
         "category": "harvest",
         "renewal_time": "5d+18h",
         "harvest_overlay_effect": "stonehearth:effects:harvest_plant_overlay_effect",
         "half_renewed_model_variant": true,
         "seasons": {
            "spring": {
               "renewal_time_multiplier": 6
            },
            "autumn": {
               "disable_renewal": true,
               "destroy_resource": true
            },
            "winter": {
               "disable_renewal": true,
               "destroy_resource": true
            }
         }
      },
      "stonehearth:resource_node": {
         "durability": 5,
         "resource": "stonehearth:resources:wood:oak_log"
      },
      "mob": {
         "model_origin": { "x": 0, "y": 0, "z": 0 },
         "region_origin": { "x": 0.5, "y": 0, "z": 0.5 }
      },
      "render_info": {
         "scale": 0.5
      },
      "destination": {
         "region": [
            {
               "min": { "x": -1, "y": 0, "z": -1 },
               "max": { "x": 2, "y": 1, "z": 2 }
            }
         ]
      },
      "region_collision_shape": {
         "region": [
            {
               "min": { "x": 0, "y": 0, "z": 0 },
               "max": { "x": 1, "y": 6, "z": 1 }
            }
         ]
      },
      "stonehearth:loot_drops": {
         "entries": {
            "beehive": {
               "items": {
                  "none": {
                     "uri": "",
                     "weight": 20
                  }
               }
            }
         }
      }
   },
   "entity_data": {
      "stonehearth:evolve_data": {
         "next_stage": "serene_league:trees:lemon:medium",
         "evolve_time": "18d+10d"
      },
      "stonehearth:catalog": {
         "display_name": "i18n(serene_league:entities.trees.lemon.small.display_name)",
         "description": "i18n(serene_league:entities.trees.lemon.small.description)",
         "subject_override": "serene_league:trees:lemon:large"
      },
      "stonehearth:appeal": {
         "appeal": 7
      },
      "stonehearth:stump_data": {
         "stump_alias": "serene_league:trees:lemon:stump"
      },
      "stonehearth_ace:replant_data": {
         "seed_alias": "serene_league:trees:lemon:seed",
         "sapling_alias": "serene_league:trees:lemon:sapling"
      }
   }
}
