{
   "type": "recipe",
   "effort": 10,
   "work_units": 5,
   "recipe_name": "i18n(serene_league:entities.furniture.plaster_table_covered.display_name)",
   "description": "i18n(serene_league:entities.furniture.plaster_table_covered.description)",
   "flavor": "i18n(serene_league:entities.furniture.plaster_table_covered.flavor)",
   "portrait": "/serene_league/entities/furniture/plaster_table_covered/plaster_table_covered.png",
   "workshop": "stonehearth:mason:workbench",
   "level_requirement": 2,
   "ingredients": [
      {
         "uri": "serene_league:furniture:plaster_table",
         "count": 1
      },
      {
         "material": "cloth resource",
         "count": 1
      }
   ],
   "produces": [
      {
         "item": "serene_league:furniture:plaster_table_covered"
      }
   ]
}
