{
   "type": "recipe",
   "effort": 6,
   "work_units": 3,
   "recipe_name": "i18n(serene_league:entities.construction.plastered_window_frame_small.display_name)",
   "description": "i18n(serene_league:entities.construction.plastered_window_frame_small.description)",
   "flavor": "i18n(serene_league:entities.construction.plastered_window_frame_small.flavor)",
   "portrait": "/serene_league/entities/construction/plastered_window_frame_small/plastered_window_frame_small.png",
   "workshop": "stonehearth:mason:workbench",
   "level_requirement": 0,
   "ordinal": 1.110,
   "ingredients": [
      {
         "uri": "serene_league:refined:plaster",
         "count": 1
      }
   ],
   "produces": [
      {
         "item": "serene_league:portals:plastered_window_frame_small"
      }
   ]
}
