{
   "type": "recipe",
   "effort": 10,
   "work_units": 3,
   "recipe_name": "i18n(serene_league:entities.decoration.plaster_box_vines.display_name)",
   "description": "i18n(serene_league:entities.decoration.plaster_box_vines.description)",
   "flavor": "i18n(serene_league:entities.decoration.plaster_box_vines.flavor)",
   "portrait": "/serene_league/entities/decoration/plaster_box_vines/plaster_box_vines.png",
   "workshop": "stonehearth:mason:workbench",
   "level_requirement": 0,
   "ingredients": [
      {
         "uri": "serene_league:refined:plaster",
         "count": 1
      },
      {
         "material": "seed_hard",
         "count": 1
      }
   ],
   "produces": [
      {
         "item": "serene_league:decoration:plaster_box_vines"
      }
   ]
}
