{
   "type": "recipe",
   "effort": 30,
   "work_units": 20,
   "recipe_name": "i18n(northern_alliance:jobs.mason.recipes.stone_sword_recipe.recipe_name)",
   "description": "i18n(stonehearth:jobs.carpenter.recipes.wooden_sword_recipe.description)",
   "flavor": "i18n(stonehearth:jobs.carpenter.recipes.wooden_sword_recipe.flavor)",
   "portrait": "/stonehearth/entities/weapons/wooden_sword/wooden_sword.png",
   "workshop": "stonehearth:mason:workbench",
   "level_requirement": 3,
   "ingredients": [
      {
         "material": "stone resource",
         "count": 2
      },
      {
         "material": "clay resource",
         "count": 1
      }
   ],
   "produces": [
      {
         "item": "stonehearth:footman:wooden_sword_talisman"
      }
   ]
}
