{
   "type" : "campaign",
   "mixins": [
      "serene_league:mixins:campaign:serene_league:deny_if_not"
   ],
   "rarity" : "common",
   "arcs" : {
      "trigger" : {
         "town_progression" : "file(arcs/trigger/town_progression/town_progression_arc.json)"
      },
      "challenge" : {
      },
      "climax" : {
      }
   }
}
