{
   "mixins": [
      "file(large_ghost.json)"
   ],
   "components": {
      "mixintypes": {
         "render_info": "override",
         "mob": "override",
         "model_variants": "override"
      }
   }
}
