{
   "mixins": "stonehearth:mixins:item_properties",
   "type": "entity",
   "components": {
      "model_variants": {
         "default": {
            "models": [
               "file(output_box_plaster.qb)"
            ]
         }
      },
      "render_info": {
         "scale": 0.03,
         "color_map": "stonehearth:color_map:gold",
         "material_maps": [
            "/stonehearth/data/materials/material_maps/gold_material_map.json"
         ]
      },
      "mob": {
         "model_origin": { "x": -0.45, "y": 0, "z": 0.22 }
      }
   },
   "entity_data": {
      "stonehearth:catalog": {
         "is_item": true,
         "category": "storage"
      }
   }
}
