{
   "mixins": "stonehearth:mixins:placed_object",
   "components": {
      "model_variants": {
         "default": {
            "models": [
               "file(output_box_plaster.qb)"
            ]
         }
      },
      "mob": {
         "model_origin": { "x": 0, "y": 0, "z": -0.5 },
         "region_origin": { "x": 0.5, "y": 0, "z": 0.5 }
      },
      "render_info": {
         "scale": 0.1,
         "animation_table": "/stonehearth/data/rigs/entities/containers/output_box/output_box.json"
      }
   },
   "entity_data": {
      "stonehearth:catalog": {
         "display_name": "i18n(serene_league:entities.containers.output_box_plaster.display_name)",
         "description": "i18n(serene_league:entities.containers.output_box_plaster.description)",
         "icon": "file(output_box_plaster.png)",
         "category": "storage",
         "material_tags": ["stone", "plaster", "containers", "crafted", "furniture", "serene_league", "stockpile_furniture"]
      }
   }
}
