{
   "type": "entity",
   "mixins": [
      "stonehearth:mixins:placed_object",
      "serene_league:mixins:ace:coast_growth_rates"
   ],
   "components": {
      "stonehearth:evolve": {},
      "model_variants": {
         "default": {
            "models": [
               "file(../../../crops/purslane/purslane_1.qb)"
            ]
         }
      },
      "mob": {
         "model_origin": { "x": 0, "y": 0, "z": 0 },
         "mob_collision_type": "clutter",
         "region_origin": { "x": 0.5, "y": 0, "z": 0.5 }
      }
   },
   "entity_data": {
      "stonehearth:evolve_data": {
         "next_stage": "serene_league:plants:purslane:stem",
         "evolve_time": "15h+2h"
      },
      "stonehearth:catalog": {
         "material_tags": ["stockpile_plant"],
         "display_name": "i18n(serene_league:entities.plants.purslane.sprout.display_name)",
         "description": "i18n(serene_league:entities.plants.purslane.sprout.description)",
         "category": "plants"
      },
      "stonehearth:appeal": {
         "appeal": 1
      }
   }
}
