{
   "type": "index",
   "music": {
      "kingdoms": {
         "serene_league:kingdoms:serene_league": {
            "tier_to_day_music_track": {
               "idle_day_music_tier_1": {
                  "track"  : [
                     "stonehearth:music:lvlmusic_ray_spring_1_day",
                     "stonehearth:music:lvlmusic_ray_summer_1_day",
                     "stonehearth:music:lvlmusic_ray_autumn_1_day",
                     "stonehearth:music:lvlmusic_ray_winter_1_day",
                     "stonehearth:music:lvlmusic_ray_spring_2_day",
                     "stonehearth:music:lvlmusic_ray_summer_2_day"
                  ],
                  "loop"   : false,
                  "fade_in": 2000,
                  "volume" : 40
               },
               "idle_day_music_tier_2": {
                  "track"  : [
                     "stonehearth:music:lvlmusic_ray_spring_1_day",
                     "stonehearth:music:lvlmusic_ray_summer_1_day",
                     "stonehearth:music:lvlmusic_ray_autumn_1_day",
                     "stonehearth:music:lvlmusic_ray_winter_1_day",
                     "stonehearth:music:lvlmusic_ray_spring_2_day",
                     "stonehearth:music:lvlmusic_ray_summer_2_day",
                     "stonehearth:music:lvlmusic_ray_winter_2_day",
                     "stonehearth:music:lvlmusic_ray_spring_3_day"
                  ],
                  "loop"   : false,
                  "fade_in": 2000,
                  "volume" : 40
               },
               "idle_day_music_tier_3": {
                  "track"  : [
                     "stonehearth:music:lvlmusic_ray_spring_1_day",
                     "stonehearth:music:lvlmusic_ray_summer_1_day",
                     "stonehearth:music:lvlmusic_ray_autumn_1_day",
                     "stonehearth:music:lvlmusic_ray_winter_1_day",
                     "stonehearth:music:lvlmusic_ray_spring_2_day",
                     "stonehearth:music:lvlmusic_ray_summer_2_day",
                     "stonehearth:music:lvlmusic_ray_winter_2_day",
                     "stonehearth:music:lvlmusic_ray_spring_3_day",
                     "stonehearth:music:lvlmusic_ray_summer_3_day",
                     "stonehearth:music:lvlmusic_ray_winter_3_day"
                  ],
                  "loop"   : false,
                  "fade_in": 2000,
                  "volume" : 40
               }
            },
            "tier_to_night_music_track": {
               "idle_night_music_tier_1": {
                  "track"  : [
                     "stonehearth:music:lvlmusic_nor_spring_1_night",
                     "stonehearth:music:lvlmusic_nor_summer_1_night",
                     "stonehearth:music:lvlmusic_nor_autumn_1_night",
                     "stonehearth:music:lvlmusic_ray_winter_1_night"
                  ],
                  "loop"   : false,
                  "fade_in": 2000,
                  "volume" : 40
               },
               "idle_night_music_tier_2": {
                  "track"  : [
                     "stonehearth:music:lvlmusic_nor_spring_1_night",
                     "stonehearth:music:lvlmusic_nor_summer_1_night",
                     "stonehearth:music:lvlmusic_nor_autumn_1_night",
                     "stonehearth:music:lvlmusic_ray_winter_1_night",
                     "stonehearth:music:lvlmusic_ray_winter_2_night",
                     "stonehearth:music:lvlmusic_nor_summer_2_night",
                     "stonehearth:music:lvlmusic_nor_autumn_2_night",
                     "stonehearth:music:lvlmusic_asc_winter_2_night"
                  ],
                  "loop"   : false,
                  "fade_in": 2000,
                  "volume" : 40
               },
               "idle_night_music_tier_3": {
                  "track"  : [
                     "stonehearth:music:lvlmusic_nor_spring_1_night",
                     "stonehearth:music:lvlmusic_nor_summer_1_night",
                     "stonehearth:music:lvlmusic_nor_autumn_1_night",
                     "stonehearth:music:lvlmusic_ray_winter_1_night",
                     "stonehearth:music:lvlmusic_ray_winter_2_night",
                     "stonehearth:music:lvlmusic_nor_summer_2_night",
                     "stonehearth:music:lvlmusic_nor_autumn_2_night",
                     "stonehearth:music:lvlmusic_asc_winter_2_night",
                     "stonehearth:music:lvlmusic_asc_spring_3_night",
                     "stonehearth:music:lvlmusic_asc_summer_3_night",
                     "stonehearth:music:lvlmusic_nor_autumn_3_night",
                     "stonehearth:music:lvlmusic_ray_winter_3_night"
                  ],
                  "loop"   : false,
                  "fade_in": 2000,
                  "volume" : 40
               }
            }
         }
      }
   }
}