{
  "type": "recipe",
  "effort": 3,
  "work_units": 3,
  "recipe_name": "i18n(serene_league:jobs.brewer.recipes.limoncello_serving_keg_recipe.recipe_name)",
  "description": "i18n(serene_league:jobs.brewer.recipes.limoncello_serving_keg_recipe.description)",
  "flavor": "i18n(serene_league:jobs.brewer.recipes.limoncello_serving_keg_recipe.flavor)",
  "portrait": "/serene_league/entities/drink/limoncello/limoncello_serving_keg/limoncello_serving_keg.png",
  "level_requirement": 1,
  "work_effect": "fiddle",
  "ingredients": [
    {
      "uri": "serene_league:drink:limoncello",
      "count": 2
    },
    {
      "material": "refined serving_keg",
      "count": 1
    }
  ],
  "produces": [
    {
      "item": "serene_league:drink:limoncello:serving_keg",
      "produce_scripts": [
        "stonehearth_ace:craft_script:material_model_variant"
      ],
      "model_variant_material": "refined serving_keg"
    }
  ]
}