{
  "mixins": [
    "/stonehearth_ace/jobs/brewer/recipes/liqueur_almond_serving_keg_recipe.json"
  ],
  "description": "i18n(serene_league:jobs.brewer.recipes.liqueur_almond_serving_keg_recipe.description)"
}