{
  "type": "entity",
  "mixins": [
    "stonehearth:mixins:placed_object"
  ],
  "components": {
    "model_variants": {
      "default": {
        "models": [
          "file(plaster_bed.qb)"
        ]
      },
      "sleeping": {
        "models": [
          "file(plaster_bed.qb)"
        ]
      }
    },
    "render_info": {
      "scale": 0.22
    },
    "mob": {
      "model_origin": {
        "x": 0,
        "y": 0,
        "z": 0
      },
      "region_origin": {
        "x": 0.5,
        "y": 0,
        "z": 0.5
      }
    }
  },
  "entity_data": {
    "stonehearth:catalog": {
      "display_name": "i18n(serene_league:entities.furniture.plaster_bed.display_name)",
      "description": "i18n(serene_league:entities.furniture.plaster_bed.description)",
      "icon": "file(plaster_bed.png)",
      "category": "furniture",
      "material_tags": [
        "stone",
        "plaster",
        "furniture",
        "crafted",
        "stockpile_furniture",
        "serene_league"
      ]
    }
  }
}