{
   "mixins": "stonehearth:mixins:food_decay",
   "type": "entity",
   "components": {
      "model_variants": {
         "default": {
            "models": [
               "file(olives_basket.qb)"
            ]
         },
         "decay_1": {
            "models": [
               "file(olives_basket_rotting.qb)"
            ]
         }
      },
      "mob": {
         "model_origin": { "x": -0.05, "y": 0, "z": 0.05 }
      },
      "stonehearth:stacks": {
         "max_stacks": 3
      }
   },
   "entity_data": {
      "stonehearth:food_container": {
         "effect": "fiddle",
         "food": "serene_league:food:olives:olives_serving"
      },
      "stonehearth:net_worth": {
         "value_in_gold": 2,
         "rarity": "common",
         "shop_info": {
            "buyable": true,
            "sellable": true,
            "shopkeeper_level": 1,
            "shopkeeper_type": "caravan"
         }
      },
      "stonehearth:catalog": {
         "display_name": "i18n(serene_league:entities.plants.olives.basket.display_name)",
         "description": "i18n(serene_league:entities.plants.olives.basket.description)",
         "icon": "file(olives_basket.png)",
         "is_item": true,
         "category": "food",
         "material_tags": [
            "food_container",
            "cooking_ingredient",
            "raw_food",
            "vegetable",
            "savory",
            "olives",
            "oil_source",
            "stockpile_raw_food",
            "other_ingredient",
            "dinner_time"
         ],
         "subject_override": "serene_league:trees:olive:large"
      },
      "stonehearth:appeal": {
         "appeal": 0
      }
   }
}
