{
   "components": {
      "stonehearth:renewable_resource_node": {
         "seasons": {
            "spring": {
               "renewal_time_multiplier": 1.0
            },
            "summer": {
               "renewal_time_multiplier": 2.0
            },
            "autumn": {
               "renewal_time_multiplier": 1.2
            },
            "winter": {
               "renewal_time_multiplier": 1.5
            }
         }
      }
   }
}