{
   "mixins": "stonehearth:mixins:item_properties",
   "type": "entity",
   "components": {
      "model_variants": {
         "default": {
            "models": [
               "file(gypsum_kiln_iconic.qb)"
            ]
         }
      },
      "mob": {
         "model_origin": { "x": -0.05, "y": 0, "z": 0.05 }
      },
      "effect_list": {
         "default": "stonehearth:effects:talisman_glow"
      }
   },
   "entity_data": {
      "stonehearth:catalog": {
         "is_item": true,
         "category": "workshops"
      }
   }
}