{
  "type": "biome_generation_data",
  "ring_tesselation": {
    "dirt": [
      {
        "width": 2,
        "name": "dirt_edge_1"
      },
      {
        "width": 3,
        "name": "dirt_edge_2"
      }
    ],
    "grass": [
      {
        "width": 4,
        "name": "grass_edge_1"
      },
      {
        "width": 6,
        "name": "grass_edge_2"
      }
    ],
    "grass_hills": [
      {
        "width": 3,
        "name": "grass_hills_edge_1"
      },
      {
        "width": 5,
        "name": "grass_hills_edge_2"
      }
    ]
  },
  "season": "summer",
  "palettes": {
    "minimap": {
      "water": "#007CA0",
      "plains_1": "#6D7A4B",
      "plains_2": "#6D7A4B",
      "foothills_1": "#74814A",
      "foothills_2": "#74814A",
      "mountains_1": "#7C884A"
    },
    "spring": {
      "null": "#FF00FF",
      "unknown": "#25221A",
      "bedrock": "#A29161",
      "rock_layer_1": "#A59463",
      "rock_layer_2": "#A89665",
      "rock_layer_3": "#AB9968",
      "rock_layer_4": "#AD9C6A",
      "rock_layer_5": "#B09E6C",
      "rock_layer_6": "#B3A16E",
      "rock_layer_7": "#B3A16E",
      "rock_layer_8": "#B3A16E",
      "soil_light": "#918154",
      "soil_dark": "#807147",
      "dirt": "#A29161",
      "dirt_edge_1": "#B3A16E",
      "dirt_edge_2": "#AB9968",
      "grass": "#65873F",
      "grass_edge_1": "#74973C",
      "grass_edge_2": "#6D8F3E",
      "grass_hills": "#65873F",
      "grass_hills_edge_1": "#74973C",
      "grass_hills_edge_2": "#6D8F3E",
      "copper_ore": "#C87533",
      "tin_ore": "#B0A080",
      "iron_ore": "#90B0D0",
      "silver_ore": "#CCCCCC",
      "gold_ore": "#FFD700",
      "coal": "#021C24"
    },
    "summer": {
      "null": "#FF00FF",
      "unknown": "#25221A",
      "bedrock": "#A29161",
      "rock_layer_1": "#A59463",
      "rock_layer_2": "#A89665",
      "rock_layer_3": "#AB9968",
      "rock_layer_4": "#AD9C6A",
      "rock_layer_5": "#B09E6C",
      "rock_layer_6": "#B3A16E",
      "rock_layer_7": "#B3A16E",
      "rock_layer_8": "#B3A16E",
      "soil_light": "#918154",
      "soil_dark": "#807147",
      "dirt": "#A29161",
      "dirt_edge_1": "#B3A16E",
      "dirt_edge_2": "#AB9968",
      "grass": "#6D7A4B",
      "grass_edge_1": "#7C884A",
      "grass_edge_2": "#74814A",
      "grass_hills": "#6D7A4B",
      "grass_hills_edge_1": "#7C884A",
      "grass_hills_edge_2": "#74814A",
      "copper_ore": "#C87533",
      "tin_ore": "#B0A080",
      "iron_ore": "#90B0D0",
      "silver_ore": "#CCCCCC",
      "gold_ore": "#FFD700",
      "coal": "#021C24"
    },
    "autumn": {
      "null": "#FF00FF",
      "unknown": "#25221A",
      "bedrock": "#A29161",
      "rock_layer_1": "#A59463",
      "rock_layer_2": "#A89665",
      "rock_layer_3": "#AB9968",
      "rock_layer_4": "#AD9C6A",
      "rock_layer_5": "#B09E6C",
      "rock_layer_6": "#B3A16E",
      "rock_layer_7": "#B3A16E",
      "rock_layer_8": "#B3A16E",
      "soil_light": "#918154",
      "soil_dark": "#807147",
      "dirt": "#A29161",
      "dirt_edge_1": "#B3A16E",
      "dirt_edge_2": "#AB9968",
      "grass": "#7A863F",
      "grass_edge_1": "#8C953D",
      "grass_edge_2": "#838D3E",
      "grass_hills": "#7A863F",
      "grass_hills_edge_1": "#8C953D",
      "grass_hills_edge_2": "#838D3E",
      "copper_ore": "#C87533",
      "tin_ore": "#B0A080",
      "iron_ore": "#90B0D0",
      "silver_ore": "#CCCCCC",
      "gold_ore": "#FFD700",
      "coal": "#021C24"
    },
    "winter": {
      "null": "#FF00FF",
      "unknown": "#25221A",
      "bedrock": "#A29161",
      "rock_layer_1": "#A59463",
      "rock_layer_2": "#A89665",
      "rock_layer_3": "#AB9968",
      "rock_layer_4": "#AD9C6A",
      "rock_layer_5": "#B09E6C",
      "rock_layer_6": "#B3A16E",
      "rock_layer_7": "#B3A16E",
      "rock_layer_8": "#B3A16E",
      "soil_light": "#918154",
      "soil_dark": "#807147",
      "dirt": "#A29161",
      "dirt_edge_1": "#B3A16E",
      "dirt_edge_2": "#AB9968",
      "grass": "#64774F",
      "grass_edge_1": "#70864D",
      "grass_edge_2": "#6A7F4E",
      "grass_hills": "#64774F",
      "grass_hills_edge_1": "#70864D",
      "grass_hills_edge_2": "#6A7F4E",
      "copper_ore": "#C87533",
      "tin_ore": "#B0A080",
      "iron_ore": "#90B0D0",
      "silver_ore": "#CCCCCC",
      "gold_ore": "#FFD700",
      "coal": "#021C24"
    }
  },
  "terrain": {
    "custom_parameters": {
      "__comment": "Determines layer height for minimap UI.",
      "bedrock_height": 4,
      "lowest_percentage": 45,
      "percentile_stretch_top": 25,
      "quantizer_top": "beach",
      "ore_min_elevation": "beach",
      "habitat_mappings": {
        "before_features": {
          "mountains": "mountains"
        },
        "after_features": {
          "beach": "beach",
          "plains": "plains",
          "foothills": "foothills"
        }
      },
      "micro_map_postprocessing": {
        "1": {
          "__comment": "Boolean, false checks only orthogonal neighbours while true also diagonal (true is needed for full traversability).",
          "method": "force_ziggurat",
          "include_diagonal": true
        },
        "2": {
          "__comment": "Self-explanatory. This is pretty much the radius of the resulting 'plateau' in chunks.",
          "method": "overflow_lower",
          "include_diagonal": false,
          "height_threshold": 60,
          "iterations": 1
        },
        "3": {
          "__comment": "Decides what to change the height to, 'min' chooses the lowest of neighbours, 'max' the highest, 'random' picks one of them (and is theoretically slower but most machines should not show a difference).",
          "method": "remove_loners",
          "mode": "max"
        }
      },
      "typeHeights": {
        "water": 0,
        "beach": 1,
        "plains": 2,
        "foothills": 3,
        "mountains": 4
      }
    },
    "custom_layers": {
      "__comment": "Allows creating custom terrain layer tables. Layering starts at height base. Make sure all type_layer_# terrains are implemented properly!",
      "rock": {
        "num_layers": 8,
        "height_base": 64,
        "step_size": 25
      }
    },
    "custom_types": {
      "__comment": "Custom terrain layer definitions. All fields except pre_process are mandatory. Must be used FOR ALL LAYERS if defining at least one non-vanilla layer.",
      "beach": {
        "__comment": "Method of generating that layer terrain starting from the bottom.",
        "order": 1,
        "mineral_density": 0,
        "wildlife_density": 0,
        "palette": {
          "__comment": "Self-explanatory: the whole layer uses one palette colour.",
          "method": "static",
          "type": "dirt"
        },
        "pre_process": {
          "__comment": "Adds soil strata (soil_height) blocks thick under (grass_height) grass_type blocks.",
          "method": "top_soil_strata_and_grass",
          "grass_type": "dirt",
          "grass_height": 1,
          "soil_height": 7
        },
        "generator": {
          "__comment": "Self-explanatory: the whole layer uses the same block type.",
          "method": "layer",
          "type": "rock"
        }
      },
      "plains": {
        "order": 2,
        "mineral_density": 0.1,
        "wildlife_density": 1.0,
        "palette": {
          "__comment": "Uses different minimap palette colours above and below threshold height.",
          "method": "threshold",
          "threshold": 1,
          "type_below": "dirt",
          "type_at_and_above": "grass"
        },
        "pre_process": {
          "method": "top_soil_strata_and_grass",
          "grass_type": "grass",
          "grass_height": 1,
          "soil_height": 7
        },
        "generator": {
          "method": "layer",
          "type": "rock"
        }
      },
      "foothills": {
        "order": 3,
        "mineral_density": 0.4,
        "wildlife_density": 1.1,
        "palette": {
          "method": "static",
          "type": "grass_hills"
        },
        "pre_process": {
          "method": "top_soil_strata_and_grass",
          "grass_type": "grass_hills",
          "grass_height": 1,
          "soil_height": 7
        },
        "generator": {
          "method": "layer",
          "type": "rock"
        }
      },
      "mountains": {
        "order": 4,
        "mineral_density": 1,
        "wildlife_density": 0.1,
        "palette": {
          "__comment": "Minimap uses one of the defined custom_layers.",
          "method": "layer",
          "type": "rock"
        },
        "pre_process": {
          "__comment": "Adds (grass_height) grass_type blocks on top of the layer if height is below max_height.",
          "__comment2": "Analogous method with min_height exists, it is called top_snow and uses snow_type, snow_height and min_height parameters.",
          "method": "top_grass",
          "grass_type": "grass_hills",
          "grass_height": 1,
          "max_height": 129
        },
        "generator": {
          "method": "layer",
          "type": "rock"
        }
      }
    },
    "minimap": {
      "beach_1": "i18n(serene_league:ui.shell.select_settlement.terrain_codes.beach)"
    },
    "noise_map_settings": {
      "octaves": 3,
      "persistence_ratio": 0.01,
      "bandlimit": 3.5,
      "aspect_ratio": 0.3
    },
    "plains_percentage": 75,
    "height_base": 25,
    "beach": {
      "step_size": 5,
      "step_count": 1
    },
    "__comment": "Layers: plains, foothills and mountains must have all the values specified (even if unused) for backward compatiblity.",
    "plains": {
      "__comment": "Must have valley_count specified for backward compatiblity.",
      "__comment2": "height_base + step_size * step_count must be a multiple of slice_size",
      "step_size": 30,
      "valley_count": 0,
      "step_count": 1
    },
    "foothills": {
      "step_size": 10,
      "step_count": 2
    },
    "mountains": {
      "step_size": 25,
      "step_count": 6
    }
  },
  "terrain_detailer": {
    "__comment": "Chunks are 16x16 - depth function cannot have layer_thickness*layer_count higher than 16!",
    "mountains": {
      "depth_function": {
        "octaves": 2,
        "persistence_ratio": 0.3,
        "amplitude": 2.5,
        "layer_thickness": 3,
        "layer_count": 2,
        "unit_length": 12
      },
      "height_function": {
        "octaves": 4,
        "persistence_ratio": 0.1,
        "amplitude": 2.5,
        "layer_thickness": 5,
        "unit_length": 16
      }
    },
    "foothills": {
      "depth_function": {
        "octaves": 3,
        "persistence_ratio": 0.4,
        "amplitude": 2.5,
        "layer_thickness": 2,
        "layer_count": 2,
        "unit_length": 6
      },
      "height_function": {
        "octaves": 4,
        "persistence_ratio": 0.1,
        "amplitude": 2.5,
        "layer_thickness": 1,
        "unit_length": 8
      }
    },
    "plains": {
      "depth_function": {
        "octaves": 2,
        "persistence_ratio": 0.3,
        "amplitude": 2.5,
        "layer_thickness": 4,
        "layer_count": 3,
        "unit_length": 12
      },
      "height_function": {
        "octaves": 4,
        "persistence_ratio": 0.1,
        "amplitude": 2.5,
        "layer_thickness": 5,
        "unit_length": 16
      }
    }
  },
  "landscape": {
    "placement_table": {
      "serene_league:trees:cypress:small": {
        "placement_type": "dense",
        "parameters": {
          "grid_multiple": 2,
          "item_density": 0.5,
          "exclusion_radius": 3
        },
        "mountains": {
          "placement_type": "single",
          "parameters": {
            "ground_radius": 2,
            "exclusion_radius": 3
          }
        }
      },
      "serene_league:trees:cypress:medium": {
        "placement_type": "single",
        "parameters": {
          "ground_radius": 2,
          "exclusion_radius": 4
        }
      },
      "serene_league:trees:cypress:large": {
        "placement_type": "single",
        "parameters": {
          "ground_radius": 2,
          "exclusion_radius": 4
        }
      },
      "serene_league:trees:stone_pine:small": {
        "placement_type": "dense",
        "parameters": {
          "grid_multiple": 2,
          "item_density": 0.3,
          "exclusion_radius": 4
        },
        "mountains": {
          "placement_type": "single",
          "parameters": {
            "ground_radius": 3,
            "exclusion_radius": 4
          }
        }
      },
      "serene_league:trees:stone_pine:medium": {
        "placement_type": "single",
        "parameters": {
          "ground_radius": 4,
          "exclusion_radius": 6
        }
      },
      "serene_league:trees:stone_pine:large": {
        "placement_type": "single",
        "parameters": {
          "ground_radius": 5,
          "exclusion_radius": 8
        }
      },
      "serene_league:trees:lemon:small" : {
        "placement_type" : "single",
        "parameters" : {
          "ground_radius" : 4,
          "exclusion_radius" : 5
        }
      },
      "serene_league:trees:lemon:medium" : {
        "placement_type" : "single",
        "parameters" : {
          "ground_radius" : 4,
          "exclusion_radius" : 5
        }
      },
      "serene_league:trees:lemon:large" : {
        "placement_type" : "single",
        "parameters" : {
          "ground_radius" : 4,
          "exclusion_radius" : 5
        }
      },
      "serene_league:trees:olive:small": {
        "placement_type": "single",
        "parameters": {
          "ground_radius": 3,
          "exclusion_radius": 4
        }
      },
      "serene_league:trees:olive:medium": {
        "placement_type": "single",
        "parameters": {
          "ground_radius": 4,
          "exclusion_radius": 6
        }
      },
      "serene_league:trees:olive:large": {
        "placement_type": "single",
        "parameters": {
          "ground_radius": 5,
          "exclusion_radius": 8
        }
      },
      "serene_league:plants:purslane": {
        "placement_type": "dense",
        "parameters": {
          "grid_multiple": 2,
          "item_density": 0.4,
          "exclusion_radius": 1
        }
      },
      "serene_league:plants:lavender": {
        "placement_type": "dense",
        "parameters": {
          "grid_multiple": 2,
          "item_density": 0.5,
          "exclusion_radius": 1
        }
      },
      "stonehearth:plants:tumbleweed": {
        "placement_type": "dense",
        "parameters": {
          "grid_multiple": 2,
          "item_density": 0.25,
          "exclusion_radius": 1
        }
      },
      "stonehearth:plants:pear_cactus": {
        "placement_type": "dense",
        "parameters": {
          "grid_multiple": 2,
          "item_density": 0.3,
          "exclusion_radius": 1
        }
      },
      "stonehearth:plants:silkweed": {
        "placement_type": "dense",
        "parameters": {
          "grid_multiple": 2,
          "item_density": 0.3,
          "exclusion_radius": 1
        }
      },
      "serene_league:boulder:coast:small": {
        "placement_type": "dense",
        "parameters": {
          "grid_multiple": 2,
          "item_density": 0.2,
          "exclusion_radius": 1
        }
      },
      "serene_league:boulder:coast:medium_1": {
        "placement_type": "single",
        "parameters": {
          "ground_radius": 1,
          "exclusion_radius": 2
        }
      },
      "serene_league:boulder:coast:medium_2": {
        "placement_type": "single",
        "parameters": {
          "ground_radius": 1,
          "exclusion_radius": 2
        }
      },
      "serene_league:boulder:coast:medium_3": {
        "placement_type": "single",
        "parameters": {
          "ground_radius": 1,
          "exclusion_radius": 2
        }
      },
      "serene_league:boulder:coast:large_1": {
        "placement_type": "single",
        "parameters": {
          "ground_radius": 2,
          "exclusion_radius": 3
        }
      },
      "serene_league:boulder:coast:large_2": {
        "placement_type": "single",
        "parameters": {
          "ground_radius": 2,
          "exclusion_radius": 3
        }
      }
    },
    "trees": {
      "sizes": {
        "serene_league:trees:cypress": {
          "small": 0,
          "medium": 4,
          "large": 20
        },
        "serene_league:trees:stone_pine": {
          "small": 0,
          "medium": 4,
          "large": 16
        },
        "serene_league:trees:lemon" : {
          "small" : 0,
          "medium" : 3,
          "large" : 2
        },
        "serene_league:trees:olive": {
          "small": 0,
          "medium": 2,
          "large": 8
        }
      },
      "weights": {
        "beach": {
          "1": {
            "serene_league:trees:cypress": 1
          }
        },
        "plains": {
          "1": {
            "serene_league:trees:cypress": 7,
            "serene_league:trees:stone_pine": 3,
            "serene_league:trees:olive": 1,
            "serene_league:trees:lemon" : 0.06
          }
        },
        "foothills": {
          "1": {
            "serene_league:trees:cypress": 5,
            "serene_league:trees:stone_pine": 2,
            "serene_league:trees:olive": 1
          },
          "2": {
            "serene_league:trees:cypress": 2,
            "serene_league:trees:stone_pine": 5,
            "serene_league:trees:olive": 1
          }
        },
        "mountains": {
          "1": {
            "serene_league:trees:cypress": 2,
            "serene_league:trees:stone_pine": 5,
            "serene_league:trees:olive": 1
          },
          "2": {
            "serene_league:trees:stone_pine": 1
          }
        }
      },
      "noise_map_parameters": {
        "mean_offset": {
          "boundary": 0,
          "water": 0
        },
        "terrain_based": {
          "beach": {
            "1": {
              "mean": 0,
              "std_dev": 60,
              "density": 0
            }
          },
          "plains": {
            "1": {
              "mean": 10,
              "std_dev": 60,
              "density": 0.25
            }
          },
          "foothills": {
            "1": {
              "mean": 7,
              "std_dev": 50,
              "density": 0.3
            },
            "2": {
              "mean": 5,
              "std_dev": 40,
              "density": 0.25
            }
          },
          "mountains": {
            "1": {
              "mean": 4,
              "std_dev": 60,
              "density": 0.2
            },
            "2": {
              "mean": 3,
              "std_dev": 55,
              "density": 0.15
            },
            "3": {
              "mean": 2,
              "std_dev": 50,
              "density": 0.1
            },
            "4": {
              "mean": 0,
              "std_dev": 30,
              "density": 0
            }
          }
        }
      }
    },
    "berries": {
      "placement": {
        "function": "gaussian",
        "mean": -50,
        "std_dev": 30,
        "mean_offset": {
          "tree": 0,
          "water": 0,
          "boundary": 0
        },
        "density": {
          "beach": 0,
          "plains": 0.5,
          "foothills": 0.4,
          "mountains": 0
        }
      }
    },
    "scattered": {
      "plants": {
        "weights": {
          "beach": {
            "1": {
              "serene_league:plants:purslane": 0
            }
          },
          "plains": {
            "1": {
              "stonehearth:plants:pear_cactus": 2.0,
              "stonehearth:plants:tumbleweed": 2.5,
              "stonehearth:plants:silkweed": 1.0,
              "serene_league:plants:purslane": 1.5,
              "serene_league:plants:lavender": 1.5,
              "serene_league:trees:lemon:small" : 0.2,
              "serene_league:trees:lemon:medium" : 0.2
            }
          },
          "foothills": {
            "1": {
              "stonehearth:plants:pear_cactus": 2.0,
              "stonehearth:plants:tumbleweed": 1.7,
              "stonehearth:plants:silkweed": 1.0,
              "serene_league:plants:purslane": 1.0,
              "serene_league:plants:lavender": 2.5,
              "serene_league:trees:lemon:small" : 0.05
            },
            "2": {
              "stonehearth:plants:pear_cactus": 3.0,
              "stonehearth:plants:tumbleweed": 2.0,
              "stonehearth:plants:silkweed": 1.0,
              "serene_league:plants:purslane": 1.5,
              "serene_league:plants:lavender": 3.0,
              "serene_league:trees:lemon:small" : 0.05
            }
          },
          "mountains": {
            "1": {
              "stonehearth:plants:pear_cactus": 2.0,
              "stonehearth:plants:tumbleweed": 1.0,
              "stonehearth:plants:silkweed": 2.0,
              "serene_league:plants:purslane": 3.0,
              "serene_league:plants:lavender": 1.0
            },
            "3": {
              "stonehearth:plants:pear_cactus": 3.0,
              "stonehearth:plants:tumbleweed": 0.5,
              "stonehearth:plants:silkweed": 3.0,
              "serene_league:plants:purslane": 2.0,
              "serene_league:plants:lavender": 0
            }
          }
        },
        "noise_map_parameters": {
          "terrain_based": {
            "beach": {
              "1": {
                "density": 0,
                "probability": 0
              }
            },
            "plains": {
              "1": {
                "density": 0.6,
                "probability": 0.3
              }
            },
            "foothills": {
              "1": {
                "density": 0.5,
                "probability": 0.35
              },
              "2": {
                "density": 0.4,
                "probability": 0.4
              }
            },
            "mountains": {
              "1": {
                "density": 0.7,
                "probability": 0.3
              },
              "2": {
                "density": 0.7,
                "probability": 0.25
              },
              "3": {
                "density": 0.7,
                "probability": 0.2
              },
              "4": {
                "density": 0,
                "probability": 0
              }
            }
          }
        }
      },
      "boulders": {
        "namespace": "serene_league:boulder:coast",
        "noise_map_parameters": {
          "terrain_based": {
            "beach": {
              "1": {
                "density": 0.5,
                "probability": 0.7
              }
            },
            "plains": {
              "1": {
                "probability": 0.2,
                "density": 0.55
              },
              "2": {
                "probability": 0.2,
                "density": 0.55
              }
            },
            "foothills": {
              "1": {
                "probability": 0.15,
                "density": 0.5
              }
            },
            "mountains": {
              "1": {
                "probability": 0.2,
                "density": 0.7
              },
              "2": {
                "probability": 0.35,
                "density": 0.7
              },
              "3": {
                "probability": 0.5,
                "density": 0.7
              },
              "4": {
                "probability": 0.3,
                "density": 0.6
              }
            }
          }
        },
        "cutoffs": {
          "small": 0.2,
          "medium": 0.4
        }
      }
    },
    "water": {
      "color": "#007CA0C0",
      "__comment": "Self-explanatory. Radius is the width (in chunks) of the band of that water level around a deeper level.",
      "custom_levels": {
        "shallow": {
          "order": 1,
          "radius": 1
        },
        "deep": {
          "order": 2,
          "radius": 2
        },
        "deeper": {
          "order": 3,
          "__comment": "The radius value of the deepest level is unused, just make sure it is a positive integer.",
          "radius": 1
        }
      },
      "depth": {
        "shallow": 1,
        "deep": 9,
        "deeper": 25
      },
      "water_height_delta": 0.5,
      "noise_map_settings": {
        "__comment": "Layers using boolean_layers can be omitted in this section, their water map calculations don't use noise generation at all.",
        "boolean_layers": {
          "beach": 1,
          "plains": "dry",
          "foothills": "dry",
          "mountains": "dry"
        },
        "persistence_ratio": 0.3,
        "bandlimit": 2,
        "octaves": 4,
        "range": 8,
        "aspect_ratio": 1,
        "mean": {
          "plains": 0.15
        }
      }
    }
  }
}