{
   "type": "entity",
   "components": {
      "stonehearth_ace:vine": {
         "growth_data": {
            "grows_on_ground": true,
            "grows_on_ceiling": false,
            "grows_on_wall": false,
            "grows_hanging": false,
            "grows_on_structure": false,
            "spreads_on_ground": true,
            "spreads_on_ceiling": false,
            "spreads_on_wall": false,
            "ignore_gravity": false,
            "terrain_types": {
               "grass": true
            },
            "spread_function": {
               "type": "horizontal_walk",
               "min_steps": 3,
               "max_steps": 5,
               "max_drop": 2
            },
            "growth_directions": {
               "x-": 1,
               "x+": 1,
               "z-": 1,
               "z+": 1
            },
            "start_num_growths_remaining": 5,
            "natural_num_growths_remaining": 2,
            "growth_times": [
               {
                  "growths_remaining": 4,
                  "time": "1d+12h"
               },
               {
                  "growths_remaining": 3,
                  "time": "2d+8h"
               },
               {
                  "growths_remaining": 2,
                  "time": "3d+6h"
               }
            ]
         },
         "render_options": {
            "casts_shadows": true,
            "bottom": {
               "scale": 0.12,
               "origin": { "x": 5, "y": 0, "z": 5 },
               "models": {
                  "default": [
                     "file(dandelions.qb)",
                     "file(dandelions_2.qb)",
                     "file(dandelions_3.qb)",
                     "file(dandelions_4.qb)",
                     "file(dandelions_5.qb)",
                     "file(dandelions_6.qb)",
                     "file(dandelions_7.qb)",
                     "file(dandelions_8.qb)",
                     "file(dandelions_9.qb)",
                     "file(dandelions_10.qb)"
                  ]
               }
            }
         }
      },
      "stonehearth:resource_node": {
         "durability": 1,
         "harvest_overlay_effect": "stonehearth:effects:harvest_plant_overlay_effect",
         "resource_loot_table": {
            "entries": {
               "optional": {
                  "num_rolls": {
                     "min": 1,
                     "max": 1
                  },
                  "items": {
                     "none": {
                        "uri": "",
                        "weight": 6
                     },
                     "flower": {
                        "uri": "serene_league:resources:herb:dandelion",
                        "weight": 4
                     },
                     "seeds": {
                        "uri": "serene_league:vines:dandelions:seed",
                        "weight": 1
                     }
                  }
               }
            }
         }
      },
      "render_info": {
         "material": "/stonehearth/data/horde/materials/structure.material.json"
      },
      "mob": {
         "model_origin": { "x": 0, "y": 0, "z": 0 },
         "region_origin": { "x": 0.5, "y": 0, "z": 0.5 },
         "mob_collision_type": "clutter"
      }
   },
   "entity_data": {
      "stonehearth:catalog": {
         "display_name": "i18n(serene_league:entities.plants.dandelions.display_name)",
         "description": "i18n(serene_league:entities.plants.dandelions.description)",
         "icon": "file(dandelions.png)"
      },
      "stonehearth:animal_feed": {
         "calorie_gain": 2
      },
      "stonehearth:appeal": {
         "appeal": 4
      },
      "navgrid": {
         "has_physics": true
      },
      "stonehearth:target_type": {
         "target_type": "item"
      }
   }
}
