{
   "mixins": [
      "serene_league:lostems:skin_changer",
      "file(plastered_tunnel_door_ghost.json)",
      "stonehearth:mixins:portals:double_door",
      "stonehearth:mixins:strong_destructable_door"
   ],
   "type": "entity",
   "components": {
      "stonehearth:entity_forms": {
         "iconic_form": "file(plastered_tunnel_door_iconic.json)",
         "ghost_form": "file(plastered_tunnel_door_ghost.json)",
         "hide_placement_ui": false
      }
   },
   "entity_data": {
      "stonehearth:net_worth": {
         "value_in_gold": 8,
         "rarity": "common",
         "shop_info": {
            "buyable": true,
            "sellable": true,
            "shopkeeper_level": 1,
            "shopkeeper_type": "caravan"
         }
      },
      "stonehearth:appeal": {
         "appeal": 8
      },
      "stonehearth:item_quality": {
         "variable_quality": true
      }
   }
}
