{
   "campaigns": {
      "trader": {
         "sl_traders": "file(campaigns/trader/trader_campaign.json)"
      },
      "town_progression": {
         "sl_town_progression": "file(campaigns/town_progression/town_progression_campaign.json)"
      }
   }
}
