{
  "type": "entity",
  "mixins": [
    "serene_league:trees:stone_pine:sapling"
  ],
  "components": {
    "mixintypes": {
      "stonehearth:commands": "remove",
      "stonehearth:entity_forms": "remove",
      "stonehearth_ace:transform": "remove"
    }
  },
  "entity_data": {
    "stonehearth_ace:evolve_modifiers": {
      "allow_manual_stunting": false
    },
    "mixintypes": {
      "stonehearth_ace:transform_data": "remove",
      "stonehearth_ace:replant_data": "remove"
    },
    "stonehearth:evolve_data": {
      "next_stage": "serene_league:crops:stone_pine_crop:small"
    },
    "stonehearth:net_worth": {
      "shop_info": {
        "buyable": false,
        "sellable": false
      }
    }
  }
}