{
   "entries": {
      "drop_1": {
         "num_rolls": {
            "min": 1,
            "max": 1
         },
         "items": {
            "cypress_med": {
               "uri": "serene_league:trees:cypress:medium",
               "weight": 1
            },
            "cypress_large": {
               "uri": "serene_league:trees:cypress:large",
               "weight": 2
            },
            "stone_pine_med": {
               "uri": "serene_league:trees:stone_pine:medium",
               "weight": 1
            },
            "stone_pine_large": {
               "uri": "serene_league:trees:stone_pine:large",
               "weight": 2
            }
         }
      }
   }
}
