{
   "craftable_recipes": {
      "refinement": {
         "recipes": {
            "lavender_transmute": {
               "recipe": "file(lavender_transmute_recipe.json)"
            },
            "purslane_transmute": {
               "recipe": "file(purslane_transmute_recipe.json)"
            },
            "dandelion_transmute": {
               "recipe": "file(dandelion_transmute_recipe.json)"
            },
            "lemon_transmute": {
               "recipe": "file(lemon_transmute_recipe.json)"
            },
            "olive_transmute": {
               "recipe": "file(olive_transmute_recipe.json)"
            }
         }
      }
   }
}
