{
   "type": "recipe",
   "effort": 20,
   "work_units": 3,
   "recipe_name": "i18n(serene_league:jobs.mason.recipes.carpenter_saw_recipe.recipe_name)",
   "description": "i18n(stonehearth:jobs.blacksmith.recipes.carpenter_saw_recipe.description)",
   "flavor": "i18n(serene_league:jobs.mason.recipes.carpenter_saw_recipe.flavor)",
   "portrait": "/serene_league/jobs/carpenter/carpenter_saw/carpenter_saw.png",
   "workshop": "stonehearth:mason:workbench",
   "level_requirement": 2,
   "ingredients": [
      {
         "material": "bone resource",
         "count": 2
      },
      {
         "material": "wood resource",
         "count": 1
      },
      {
         "material": "fiber resource",
         "count": 1
      }
   ],
   "produces": [
      {
         "item": "serene_league:carpenter:talisman"
      }
   ]
}
