{
  "type": "recipe",
  "mixins": [
    "file(../plaster_comfy_bed_recipe.json)"
  ],
  "mixintypes": {
    "ingredients": "override"
  },
  "ingredients": [
    {
      "uri": "serene_league:refined:plaster",
      "count": 2
    },
    {
      "material": "cloth resource",
      "count": 1
    },
    {
      "uri": "stonehearth_ace:refined:fine_stuffing",
      "count": 2
    }
  ]
}