{
   "type": "recipe",
   "effort": 15,
   "work_units": 3,
   "recipe_name": "i18n(serene_league:entities.furniture.plaster_comfy_bed_pet.display_name)",
   "description": "i18n(serene_league:entities.furniture.plaster_comfy_bed_pet.description)",
   "flavor": "i18n(serene_league:entities.furniture.plaster_comfy_bed_pet.flavor)",
   "portrait": "/serene_league/entities/furniture/plaster_comfy_bed_pet/plaster_comfy_bed_pet.png",
   "workshop": "stonehearth:mason:pedestal",
   "level_requirement": 3,
   "ingredients": [
      {
         "uri": "serene_league:refined:plaster",
         "count": 1
      },
      {
         "material": "cloth resource",
         "count": 1
      }
   ],
   "produces": [
      {
         "item": "serene_league:furniture:plaster_comfy_bed_pet"
      }
   ]
}
