{
   "type": "entity",
   "mixins": [
      "serene_league:stonehearth_ace:drink:serving_keg",
      "file(hippocras_serving_keg_ghost.json)"
   ],
   "components": {
      "stonehearth:entity_forms": {
         "iconic_form": "file(hippocras_serving_keg_iconic.json)",
         "ghost_form": "file(hippocras_serving_keg_ghost.json)",
         "placeable_on_ground": true
      },
      "stonehearth:stacks": {
         "max_stacks": 16
      }
   },
   "entity_data": {
      "stonehearth_ace:drink_container": {
         "drink": "serene_league:drink:hippocras:hippocras_serving"
      },
      "stonehearth:net_worth": {
         "value_in_gold": 53
      },
      "stonehearth:appeal": {
         "appeal": 16
      }
   }
}
