{
   "mixins": "stonehearth:mixins:tree",
   "type": "entity",
   "components": {
      "model_variants": {
         "default": {
            "models": [
               "file(large.qb)"
            ]
         },
         "autumn": {
            "models": [
               "file(large_autumn.qb)"
            ]
         },
         "spring": {
            "models": [
               "file(large_spring.qb)"
            ]
         },
         "winter": {
            "models": [
               "file(large_winter.qb)"
            ]
         }
      },
      "stonehearth:seasonal_model_switcher": {
         "serene_league:biome:coast": {
            "spring": "spring",
            "summer": "default",
            "autumn": "autumn",
            "winter": "winter"
         },
         "stonehearth:biome:temperate": {
            "spring": "spring",
            "summer": "default",
            "autumn": "autumn",
            "winter": "winter"
         }
      },
      "stonehearth:resource_node": {
         "durability": 15,
         "resource": "stonehearth:resources:wood:pine_log",
         "resource_loot_table": {
            "entries": {
               "optional": {
                  "num_rolls": {
                     "min": 1,
                     "max": 1
                  },
                  "items": {
                     "none": {
                        "uri": "",
                        "weight": 10
                     },
                     "pelt": {
                        "uri": "serene_league:trees:stone_pine:seed",
                        "weight": 1
                     }
                  }
               }
            }
         }
      },
      "mob": {
         "model_origin": { "x": 0, "y": 0, "z": 0 },
         "region_origin": { "x": 0.5, "y": 0, "z": 0.5 }
      },
      "render_info": {
         "scale": 0.5
      },
      "destination": {
         "region": [
            {
               "min": { "x": -1, "y": 0, "z": -1 },
               "max": { "x": 2, "y": 1, "z": 2 }
            }
         ]
      },
      "region_collision_shape": {
         "region": [
            {
               "min": { "x": -1, "y": 0, "z": -1 },
               "max": { "x": 2, "y": 21, "z": 2 }
            }
         ]
      },
      "stonehearth:loot_drops": {
         "entries": {
            "beehive": {
               "items": {
                  "none": {
                     "uri": "",
                     "weight": 4
                  }
               }
            }
         }
      }
   },
   "entity_data": {
      "stonehearth:catalog": {
         "display_name": "i18n(serene_league:entities.trees.stone_pine.large.display_name)",
         "description": "i18n(serene_league:entities.trees.stone_pine.large.description)"
      },
      "stonehearth:appeal": {
         "appeal": 2
      },
      "stonehearth:stump_data": {
         "stump_alias": "serene_league:trees:stone_pine:large:stump"
      },
      "stonehearth_ace:replant_data": {
         "seed_alias": "serene_league:trees:stone_pine:seed",
         "sapling_alias": "serene_league:trees:stone_pine:sapling"
      }
   }
}
