{
   "type": "index",
   "categories": {
      "head_hair": ["head_hair"],
      "face_hair": ["eyebrows"],
      "skin_color": ["skin_color"],
      "eye_color": ["eye_color"],
      "hair_color": ["hair_color"]
   },
   "styles": {
      "hair_color": {
         "type": "material_map",
         "values": {
            "black": {
               "file": "/stonehearth/data/materials/material_maps/hair_black_material_map.json"
            },
            "brown": {
               "file": "/stonehearth/data/materials/material_maps/hair_brown_material_map.json"
            },
            "red": {
               "file": "/stonehearth/data/materials/material_maps/hair_red_material_map.json"
            },
            "sandy": {
               "file": "/stonehearth/data/materials/material_maps/hair_sandy_material_map.json"
            },
            "blonde": {
               "file": "/stonehearth/data/materials/material_maps/hair_blonde_material_map.json"
            },
            "platinum": {
               "file": "/stonehearth/data/materials/material_maps/hair_platinum_material_map.json"
            }
         }
      },
      "skin_color": {
         "type": "material_map",
         "values": {
            "white": {
               "file": "/stonehearth/data/materials/material_maps/skin_white_material_map.json"
            },
            "brown_1": {
               "file": "/stonehearth/data/materials/material_maps/skin_brown1_material_map.json"
            },
            "brown_2": {
               "file": "/stonehearth/data/materials/material_maps/skin_brown2_material_map.json"
            }
         }
      },
      "eye_color": {
         "type": "material_map",
         "values": {
            "aqua": {
               "file": "/stonehearth/data/materials/material_maps/eye_aqua_material_map.json"
            },
            "black": {
               "file": "/stonehearth/data/materials/material_maps/eye_black_material_map.json"
            },
            "blue": {
               "file": "/stonehearth/data/materials/material_maps/eye_blue_material_map.json"
            },
            "blurple": {
               "file": "/stonehearth/data/materials/material_maps/eye_blurple_material_map.json"
            },
            "brown": {
               "file": "/stonehearth/data/materials/material_maps/eye_brown_material_map.json"
            },
            "green": {
               "file": "/stonehearth/data/materials/material_maps/eye_green_material_map.json"
            },
            "hazel": {
               "file": "/stonehearth/data/materials/material_maps/eye_hazel_material_map.json"
            },
            "magenta": {
               "file": "/stonehearth/data/materials/material_maps/eye_magenta_material_map.json"
            },
            "red": {
               "file": "/stonehearth/data/materials/material_maps/eye_red_material_map.json"
            },
            "yellow": {
               "file": "/stonehearth/data/materials/material_maps/eye_yellow_material_map.json"
            }
         }
      },
      "eyebrows": {
         "type": "model",
         "values": {
            "[none]": {
               "file": ""
            },
            "straight_eyebrows": {
               "file": "/stonehearth/entities/humans/male/brows.qb"
            }
         }
      },
      "head_hair": {
         "type": "model",
         "values": {
            "male_wig_1": {
               "file": "file(wig_1.qb)"
            },
            "male_wig_2": {
               "file": "file(wig_2.qb)"
            },
            "male_wig_3": {
               "file": "file(wig_3.qb)"
            },
            "male_wig_4": {
               "file": "file(wig_4.qb)"
            },
            "male_wig_5": {
               "file": "file(wig_5.qb)"
            },
            "male_wig_6": {
               "file": "file(wig_6.qb)"
            },
            "male_wig_old_1": {
               "file": "file(wig_old_1.qb)"
            },
            "male_wig_old_2": {
               "file": "file(wig_old_2.qb)"
            },
            "male_wig_old_3": {
               "file": "file(wig_old_3.qb)"
            },
            "male_wig_old_4": {
               "file": "file(wig_old_4.qb)"
            },
            "male_wig_old_5": {
               "file": "file(wig_old_5.qb)"
            },
            "male_wig_old_6": {
               "file": "file(wig_old_6.qb)"
            }
         }
      }
   }
}