{
   "mixins": "stonehearth:mixins:placed_object",
   "type": "entity",
   "components": {
      "render_info": {
         "scale": 0.5
      },
      "model_variants": {
         "default": {
            "models": [
               "file(sapling.qb)"
            ]
         }
      },
      "mob": {
         "model_origin": {
            "x": 0,
            "y": 0,
            "z": 0
         },
         "region_origin": {
            "x": 0.5,
            "y": 0,
            "z": 0.5
         }
      }
   },
   "entity_data": {
      "stonehearth:catalog": {
         "display_name": "i18n(serene_league:entities.trees.lemon.sapling.display_name)",
         "description": "i18n(serene_league:entities.trees.lemon.sapling.description)",
         "icon": "file(sapling.png)",
         "category": "plants"
      }
   }
}