{
  "type": "entity",
  "mixins": [
    "file(water_well_roof_clay.json)"
  ],
  "components": {
    "model_variants": {
      "mixintypes": {
        "default": "override"
      },
      "default": {
        "models": [
          "file(water_well_roof_terracotta.qb)"
        ]
      }
    }
  },
  "entity_data": {
    "stonehearth:catalog": {
      "display_name": "i18n(serene_league:entities.refined.water_well_roof_terracotta.display_name)",
      "icon": "file(water_well_roof_terracotta.png)"
    }
  }
}