{
   "type": "entity",
   "mixins": [
      "stonehearth:mixins:tree",
      "serene_league:mixins:ace:coast_growth_rates",
      "file(sapling_ghost.json)"
   ],
   "components": {
      "stonehearth:entity_forms": {
         "iconic_form": "file(sapling_iconic.json)",
         "ghost_form": "file(sapling_ghost.json)",
         "placeable_on_ground": true,
         "hide_placement_ui": true
      },
      "stonehearth:evolve": {},
      "stonehearth:resource_node": {
         "resource": "stonehearth:resources:wood:pine_log",
         "durability": 2
      },
      "render_info": {
         "scale": 0.5
      },
      "destination": {
         "region": [
            {
               "min": { "x": -1, "y": 0, "z": -1 },
               "max": { "x": 2, "y": 1, "z": 2 }
            }
         ]
      },
      "region_collision_shape": {
         "region": [
            {
               "min": { "x": -1, "y": 0, "z": -1 },
               "max": { "x": 2, "y": 6, "z": 2 }
            }
         ]
      }
   },
   "entity_data": {
      "stonehearth:evolve_data": {
         "next_stage": "serene_league:trees:stone_pine:small",
         "evolve_time": "1d"
      },
      "stonehearth:net_worth": {
         "value_in_gold": 1,
         "rarity": "common",
         "shop_info": {
            "buyable": false,
            "sellable": true,
            "shopkeeper_level": 1,
            "shopkeeper_type": "caravan"
         }
      },
      "stonehearth:catalog": {
         "description": "i18n(serene_league:entities.trees.stone_pine.sapling.description)",
         "category": "plants",
         "material_tags": ["plant", "tree", "stockpile_plant"],
         "subject_override": "serene_league:trees:stone_pine:large"
      },
      "stonehearth:appeal": {
         "appeal": 1
      }
   }
}